Taxonomy	SRR7092930	SRR7092931	SRR7092932	SRR7092933	SRR7092934	SRR7092935	SRR7092936	SRR7092937	SRR7092938	SRR7092939	SRR7092940	SRR7092941	SRR7092942	SRR7092943	SRR7092944
D_0__Bacteria ::: D_0__Bacteria;D_1__Proteobacteria ::: D_0__Bacteria;D_1__Proteobacteria;D_2__Gammaproteobacteria ::: D_0__Bacteria;D_1__Proteobacteria;D_2__Gammaproteobacteria;D_3__Alteromonadales ::: D_0__Bacteria;D_1__Proteobacteria;D_2__Gammaproteobacteria;D_3__Alteromonadales;D_4__Colwelliaceae ::: D_0__Bacteria;D_1__Proteobacteria;D_2__Gammaproteobacteria;D_3__Alteromonadales;D_4__Colwelliaceae;D_5__Colwellia ::: D_0__Bacteria;D_1__Proteobacteria;D_2__Gammaproteobacteria;D_3__Alteromonadales;D_4__Colwelliaceae;D_5__Colwellia;D_6__uncultured bacterium	0	3	0	0	0	0	0	0	0	0	0	0	0	0	0
Unassigned	29850	44483	13011	34546	22152	30947	41953	24819	37426	17608	40001	146874	43910	7064	17221
