Taxonomy	SRR6031465	SRR6031466	SRR6031467	SRR6031468	SRR6031469	SRR6031470
D_0__Archaea ::: D_0__Archaea;D_1__Thaumarchaeota ::: D_0__Archaea;D_1__Thaumarchaeota;D_2__Nitrososphaeria ::: D_0__Archaea;D_1__Thaumarchaeota;D_2__Nitrososphaeria;D_3__Nitrosopumilales ::: D_0__Archaea;D_1__Thaumarchaeota;D_2__Nitrososphaeria;D_3__Nitrosopumilales;D_4__Nitrosopumilaceae ::: D_0__Archaea;D_1__Thaumarchaeota;D_2__Nitrososphaeria;D_3__Nitrosopumilales;D_4__Nitrosopumilaceae;Ambiguous_taxa ::: D_0__Archaea;D_1__Thaumarchaeota;D_2__Nitrososphaeria;D_3__Nitrosopumilales;D_4__Nitrosopumilaceae;Ambiguous_taxa;Ambiguous_taxa	0	0	89	0	0	0
D_0__Archaea ::: D_0__Archaea;D_1__Thaumarchaeota ::: D_0__Archaea;D_1__Thaumarchaeota;D_2__Nitrososphaeria ::: D_0__Archaea;D_1__Thaumarchaeota;D_2__Nitrososphaeria;D_3__Nitrosopumilales ::: D_0__Archaea;D_1__Thaumarchaeota;D_2__Nitrososphaeria;D_3__Nitrosopumilales;D_4__Nitrosopumilaceae ::: D_0__Archaea;D_1__Thaumarchaeota;D_2__Nitrososphaeria;D_3__Nitrosopumilales;D_4__Nitrosopumilaceae;D_5__Candidatus Nitrosopelagicus ::: D_0__Archaea;D_1__Thaumarchaeota;D_2__Nitrososphaeria;D_3__Nitrosopumilales;D_4__Nitrosopumilaceae;D_5__Candidatus Nitrosopelagicus;Ambiguous_taxa	381	0	0	0	0	0
D_0__Bacteria ::: D_0__Bacteria;D_1__Acidobacteria ::: D_0__Bacteria;D_1__Acidobacteria;D_2__Subgroup 6 ::: D_0__Bacteria;D_1__Acidobacteria;D_2__Subgroup 6;D_3__uncultured Acidobacteria bacterium ::: D_0__Bacteria;D_1__Acidobacteria;D_2__Subgroup 6;D_3__uncultured Acidobacteria bacterium;D_4__uncultured Acidobacteria bacterium ::: D_0__Bacteria;D_1__Acidobacteria;D_2__Subgroup 6;D_3__uncultured Acidobacteria bacterium;D_4__uncultured Acidobacteria bacterium;D_5__uncultured Acidobacteria bacterium ::: D_0__Bacteria;D_1__Acidobacteria;D_2__Subgroup 6;D_3__uncultured Acidobacteria bacterium;D_4__uncultured Acidobacteria bacterium;D_5__uncultured Acidobacteria bacterium;D_6__uncultured Acidobacteria bacterium	0	46	0	0	0	0
D_0__Bacteria ::: D_0__Bacteria;D_1__Actinobacteria ::: D_0__Bacteria;D_1__Actinobacteria;D_2__Acidimicrobiia ::: D_0__Bacteria;D_1__Actinobacteria;D_2__Acidimicrobiia;D_3__Actinomarinales ::: D_0__Bacteria;D_1__Actinobacteria;D_2__Acidimicrobiia;D_3__Actinomarinales;D_4__Actinomarinaceae ::: D_0__Bacteria;D_1__Actinobacteria;D_2__Acidimicrobiia;D_3__Actinomarinales;D_4__Actinomarinaceae;D_5__Candidatus Actinomarina ::: D_0__Bacteria;D_1__Actinobacteria;D_2__Acidimicrobiia;D_3__Actinomarinales;D_4__Actinomarinaceae;D_5__Candidatus Actinomarina;Ambiguous_taxa	122	0	0	0	0	0
D_0__Bacteria ::: D_0__Bacteria;D_1__Actinobacteria ::: D_0__Bacteria;D_1__Actinobacteria;D_2__Acidimicrobiia ::: D_0__Bacteria;D_1__Actinobacteria;D_2__Acidimicrobiia;D_3__Actinomarinales ::: D_0__Bacteria;D_1__Actinobacteria;D_2__Acidimicrobiia;D_3__Actinomarinales;D_4__Actinomarinaceae ::: D_0__Bacteria;D_1__Actinobacteria;D_2__Acidimicrobiia;D_3__Actinomarinales;D_4__Actinomarinaceae;D_5__Candidatus Actinomarina ::: D_0__Bacteria;D_1__Actinobacteria;D_2__Acidimicrobiia;D_3__Actinomarinales;D_4__Actinomarinaceae;D_5__Candidatus Actinomarina;D_6__uncultured bacterium	337	121	0	0	0	0
D_0__Bacteria ::: D_0__Bacteria;D_1__Actinobacteria ::: D_0__Bacteria;D_1__Actinobacteria;D_2__Actinobacteria ::: D_0__Bacteria;D_1__Actinobacteria;D_2__Actinobacteria;D_3__Micrococcales ::: D_0__Bacteria;D_1__Actinobacteria;D_2__Actinobacteria;D_3__Micrococcales;D_4__Micrococcaceae ::: D_0__Bacteria;D_1__Actinobacteria;D_2__Actinobacteria;D_3__Micrococcales;D_4__Micrococcaceae;D_5__Pseudarthrobacter ::: D_0__Bacteria;D_1__Actinobacteria;D_2__Actinobacteria;D_3__Micrococcales;D_4__Micrococcaceae;D_5__Pseudarthrobacter;Ambiguous_taxa	0	34	0	0	0	48
D_0__Bacteria ::: D_0__Bacteria;D_1__Actinobacteria ::: D_0__Bacteria;D_1__Actinobacteria;D_2__Thermoleophilia ::: D_0__Bacteria;D_1__Actinobacteria;D_2__Thermoleophilia;D_3__Solirubrobacterales ::: D_0__Bacteria;D_1__Actinobacteria;D_2__Thermoleophilia;D_3__Solirubrobacterales;D_4__Solirubrobacteraceae ::: D_0__Bacteria;D_1__Actinobacteria;D_2__Thermoleophilia;D_3__Solirubrobacterales;D_4__Solirubrobacteraceae;D_5__Solirubrobacter ::: D_0__Bacteria;D_1__Actinobacteria;D_2__Thermoleophilia;D_3__Solirubrobacterales;D_4__Solirubrobacteraceae;D_5__Solirubrobacter;D_6__uncultured bacterium	0	3	0	0	0	0
D_0__Bacteria ::: D_0__Bacteria;D_1__Bacteroidetes ::: D_0__Bacteria;D_1__Bacteroidetes;D_2__Bacteroidia ::: D_0__Bacteria;D_1__Bacteroidetes;D_2__Bacteroidia;D_3__Bacteroidales ::: D_0__Bacteria;D_1__Bacteroidetes;D_2__Bacteroidia;D_3__Bacteroidales;D_4__Bacteroidetes vadinHA17	0	4	0	0	0	0
D_0__Bacteria ::: D_0__Bacteria;D_1__Bacteroidetes ::: D_0__Bacteria;D_1__Bacteroidetes;D_2__Bacteroidia ::: D_0__Bacteria;D_1__Bacteroidetes;D_2__Bacteroidia;D_3__Chitinophagales ::: D_0__Bacteria;D_1__Bacteroidetes;D_2__Bacteroidia;D_3__Chitinophagales;D_4__Chitinophagaceae ::: D_0__Bacteria;D_1__Bacteroidetes;D_2__Bacteroidia;D_3__Chitinophagales;D_4__Chitinophagaceae;D_5__Ferruginibacter ::: D_0__Bacteria;D_1__Bacteroidetes;D_2__Bacteroidia;D_3__Chitinophagales;D_4__Chitinophagaceae;D_5__Ferruginibacter;Ambiguous_taxa	0	20	0	0	0	0
D_0__Bacteria ::: D_0__Bacteria;D_1__Bacteroidetes ::: D_0__Bacteria;D_1__Bacteroidetes;D_2__Bacteroidia ::: D_0__Bacteria;D_1__Bacteroidetes;D_2__Bacteroidia;D_3__Chitinophagales ::: D_0__Bacteria;D_1__Bacteroidetes;D_2__Bacteroidia;D_3__Chitinophagales;D_4__Chitinophagaceae ::: D_0__Bacteria;D_1__Bacteroidetes;D_2__Bacteroidia;D_3__Chitinophagales;D_4__Chitinophagaceae;D_5__Flavisolibacter ::: D_0__Bacteria;D_1__Bacteroidetes;D_2__Bacteroidia;D_3__Chitinophagales;D_4__Chitinophagaceae;D_5__Flavisolibacter;D_6__uncultured bacterium	0	16	0	0	0	0
D_0__Bacteria ::: D_0__Bacteria;D_1__Bacteroidetes ::: D_0__Bacteria;D_1__Bacteroidetes;D_2__Bacteroidia ::: D_0__Bacteria;D_1__Bacteroidetes;D_2__Bacteroidia;D_3__Chitinophagales ::: D_0__Bacteria;D_1__Bacteroidetes;D_2__Bacteroidia;D_3__Chitinophagales;D_4__uncultured ::: D_0__Bacteria;D_1__Bacteroidetes;D_2__Bacteroidia;D_3__Chitinophagales;D_4__uncultured;D_5__uncultured bacterium ::: D_0__Bacteria;D_1__Bacteroidetes;D_2__Bacteroidia;D_3__Chitinophagales;D_4__uncultured;D_5__uncultured bacterium;D_6__uncultured bacterium	0	0	0	0	0	2
D_0__Bacteria ::: D_0__Bacteria;D_1__Bacteroidetes ::: D_0__Bacteria;D_1__Bacteroidetes;D_2__Bacteroidia ::: D_0__Bacteria;D_1__Bacteroidetes;D_2__Bacteroidia;D_3__Cytophagales ::: D_0__Bacteria;D_1__Bacteroidetes;D_2__Bacteroidia;D_3__Cytophagales;D_4__Cyclobacteriaceae ::: D_0__Bacteria;D_1__Bacteroidetes;D_2__Bacteroidia;D_3__Cytophagales;D_4__Cyclobacteriaceae;D_5__Marinoscillum ::: D_0__Bacteria;D_1__Bacteroidetes;D_2__Bacteroidia;D_3__Cytophagales;D_4__Cyclobacteriaceae;D_5__Marinoscillum;D_6__uncultured bacterium	108	0	0	0	0	0
D_0__Bacteria ::: D_0__Bacteria;D_1__Bacteroidetes ::: D_0__Bacteria;D_1__Bacteroidetes;D_2__Bacteroidia ::: D_0__Bacteria;D_1__Bacteroidetes;D_2__Bacteroidia;D_3__Flavobacteriales ::: D_0__Bacteria;D_1__Bacteroidetes;D_2__Bacteroidia;D_3__Flavobacteriales;D_4__Cryomorphaceae ::: D_0__Bacteria;D_1__Bacteroidetes;D_2__Bacteroidia;D_3__Flavobacteriales;D_4__Cryomorphaceae;D_5__uncultured ::: D_0__Bacteria;D_1__Bacteroidetes;D_2__Bacteroidia;D_3__Flavobacteriales;D_4__Cryomorphaceae;D_5__uncultured;D_6__uncultured Bacteroidetes bacterium	0	0	402	36	0	0
D_0__Bacteria ::: D_0__Bacteria;D_1__Bacteroidetes ::: D_0__Bacteria;D_1__Bacteroidetes;D_2__Bacteroidia ::: D_0__Bacteria;D_1__Bacteroidetes;D_2__Bacteroidia;D_3__Flavobacteriales ::: D_0__Bacteria;D_1__Bacteroidetes;D_2__Bacteroidia;D_3__Flavobacteriales;D_4__Cryomorphaceae ::: D_0__Bacteria;D_1__Bacteroidetes;D_2__Bacteroidia;D_3__Flavobacteriales;D_4__Cryomorphaceae;D_5__uncultured ::: D_0__Bacteria;D_1__Bacteroidetes;D_2__Bacteroidia;D_3__Flavobacteriales;D_4__Cryomorphaceae;D_5__uncultured;D_6__uncultured bacterium	0	0	0	22	0	0
D_0__Bacteria ::: D_0__Bacteria;D_1__Bacteroidetes ::: D_0__Bacteria;D_1__Bacteroidetes;D_2__Bacteroidia ::: D_0__Bacteria;D_1__Bacteroidetes;D_2__Bacteroidia;D_3__Flavobacteriales ::: D_0__Bacteria;D_1__Bacteroidetes;D_2__Bacteroidia;D_3__Flavobacteriales;D_4__Flavobacteriaceae ::: D_0__Bacteria;D_1__Bacteroidetes;D_2__Bacteroidia;D_3__Flavobacteriales;D_4__Flavobacteriaceae;D_5__Aquibacter ::: D_0__Bacteria;D_1__Bacteroidetes;D_2__Bacteroidia;D_3__Flavobacteriales;D_4__Flavobacteriaceae;D_5__Aquibacter;D_6__uncultured bacterium	0	0	0	0	194	0
D_0__Bacteria ::: D_0__Bacteria;D_1__Bacteroidetes ::: D_0__Bacteria;D_1__Bacteroidetes;D_2__Bacteroidia ::: D_0__Bacteria;D_1__Bacteroidetes;D_2__Bacteroidia;D_3__Flavobacteriales ::: D_0__Bacteria;D_1__Bacteroidetes;D_2__Bacteroidia;D_3__Flavobacteriales;D_4__Flavobacteriaceae ::: D_0__Bacteria;D_1__Bacteroidetes;D_2__Bacteroidia;D_3__Flavobacteriales;D_4__Flavobacteriaceae;D_5__Muricauda ::: D_0__Bacteria;D_1__Bacteroidetes;D_2__Bacteroidia;D_3__Flavobacteriales;D_4__Flavobacteriaceae;D_5__Muricauda;Ambiguous_taxa	27	0	0	0	0	0
D_0__Bacteria ::: D_0__Bacteria;D_1__Bacteroidetes ::: D_0__Bacteria;D_1__Bacteroidetes;D_2__Bacteroidia ::: D_0__Bacteria;D_1__Bacteroidetes;D_2__Bacteroidia;D_3__Flavobacteriales ::: D_0__Bacteria;D_1__Bacteroidetes;D_2__Bacteroidia;D_3__Flavobacteriales;D_4__Flavobacteriaceae ::: D_0__Bacteria;D_1__Bacteroidetes;D_2__Bacteroidia;D_3__Flavobacteriales;D_4__Flavobacteriaceae;D_5__NS2b marine group ::: D_0__Bacteria;D_1__Bacteroidetes;D_2__Bacteroidia;D_3__Flavobacteriales;D_4__Flavobacteriaceae;D_5__NS2b marine group;Ambiguous_taxa	22	0	0	0	0	0
D_0__Bacteria ::: D_0__Bacteria;D_1__Bacteroidetes ::: D_0__Bacteria;D_1__Bacteroidetes;D_2__Bacteroidia ::: D_0__Bacteria;D_1__Bacteroidetes;D_2__Bacteroidia;D_3__Flavobacteriales ::: D_0__Bacteria;D_1__Bacteroidetes;D_2__Bacteroidia;D_3__Flavobacteriales;D_4__Flavobacteriaceae ::: D_0__Bacteria;D_1__Bacteroidetes;D_2__Bacteroidia;D_3__Flavobacteriales;D_4__Flavobacteriaceae;D_5__NS5 marine group ::: D_0__Bacteria;D_1__Bacteroidetes;D_2__Bacteroidia;D_3__Flavobacteriales;D_4__Flavobacteriaceae;D_5__NS5 marine group;Ambiguous_taxa	23	0	0	0	0	0
D_0__Bacteria ::: D_0__Bacteria;D_1__Bacteroidetes ::: D_0__Bacteria;D_1__Bacteroidetes;D_2__Bacteroidia ::: D_0__Bacteria;D_1__Bacteroidetes;D_2__Bacteroidia;D_3__Flavobacteriales ::: D_0__Bacteria;D_1__Bacteroidetes;D_2__Bacteroidia;D_3__Flavobacteriales;D_4__Flavobacteriaceae ::: D_0__Bacteria;D_1__Bacteroidetes;D_2__Bacteroidia;D_3__Flavobacteriales;D_4__Flavobacteriaceae;D_5__NS5 marine group ::: D_0__Bacteria;D_1__Bacteroidetes;D_2__Bacteroidia;D_3__Flavobacteriales;D_4__Flavobacteriaceae;D_5__NS5 marine group;D_6__uncultured bacterium	49	0	0	0	0	0
D_0__Bacteria ::: D_0__Bacteria;D_1__Bacteroidetes ::: D_0__Bacteria;D_1__Bacteroidetes;D_2__Bacteroidia ::: D_0__Bacteria;D_1__Bacteroidetes;D_2__Bacteroidia;D_3__Flavobacteriales ::: D_0__Bacteria;D_1__Bacteroidetes;D_2__Bacteroidia;D_3__Flavobacteriales;D_4__Flavobacteriaceae ::: D_0__Bacteria;D_1__Bacteroidetes;D_2__Bacteroidia;D_3__Flavobacteriales;D_4__Flavobacteriaceae;D_5__Polaribacter 4 ::: D_0__Bacteria;D_1__Bacteroidetes;D_2__Bacteroidia;D_3__Flavobacteriales;D_4__Flavobacteriaceae;D_5__Polaribacter 4;D_6__Polaribacter porphyrae	0	0	92	0	0	0
D_0__Bacteria ::: D_0__Bacteria;D_1__Bacteroidetes ::: D_0__Bacteria;D_1__Bacteroidetes;D_2__Bacteroidia ::: D_0__Bacteria;D_1__Bacteroidetes;D_2__Bacteroidia;D_3__Flavobacteriales ::: D_0__Bacteria;D_1__Bacteroidetes;D_2__Bacteroidia;D_3__Flavobacteriales;D_4__Flavobacteriaceae ::: D_0__Bacteria;D_1__Bacteroidetes;D_2__Bacteroidia;D_3__Flavobacteriales;D_4__Flavobacteriaceae;D_5__Polaribacter ::: D_0__Bacteria;D_1__Bacteroidetes;D_2__Bacteroidia;D_3__Flavobacteriales;D_4__Flavobacteriaceae;D_5__Polaribacter;D_6__uncultured bacterium	0	0	76	0	0	0
D_0__Bacteria ::: D_0__Bacteria;D_1__Bacteroidetes ::: D_0__Bacteria;D_1__Bacteroidetes;D_2__Bacteroidia ::: D_0__Bacteria;D_1__Bacteroidetes;D_2__Bacteroidia;D_3__Flavobacteriales ::: D_0__Bacteria;D_1__Bacteroidetes;D_2__Bacteroidia;D_3__Flavobacteriales;D_4__Flavobacteriaceae ::: D_0__Bacteria;D_1__Bacteroidetes;D_2__Bacteroidia;D_3__Flavobacteriales;D_4__Flavobacteriaceae;D_5__Pseudofulvibacter ::: D_0__Bacteria;D_1__Bacteroidetes;D_2__Bacteroidia;D_3__Flavobacteriales;D_4__Flavobacteriaceae;D_5__Pseudofulvibacter;D_6__uncultured Flavobacteriaceae bacterium	0	0	11	0	0	0
D_0__Bacteria ::: D_0__Bacteria;D_1__Bacteroidetes ::: D_0__Bacteria;D_1__Bacteroidetes;D_2__Bacteroidia ::: D_0__Bacteria;D_1__Bacteroidetes;D_2__Bacteroidia;D_3__Flavobacteriales ::: D_0__Bacteria;D_1__Bacteroidetes;D_2__Bacteroidia;D_3__Flavobacteriales;D_4__Flavobacteriaceae ::: D_0__Bacteria;D_1__Bacteroidetes;D_2__Bacteroidia;D_3__Flavobacteriales;D_4__Flavobacteriaceae;D_5__Tenacibaculum ::: D_0__Bacteria;D_1__Bacteroidetes;D_2__Bacteroidia;D_3__Flavobacteriales;D_4__Flavobacteriaceae;D_5__Tenacibaculum;Ambiguous_taxa	0	159	0	0	0	0
D_0__Bacteria ::: D_0__Bacteria;D_1__Bacteroidetes ::: D_0__Bacteria;D_1__Bacteroidetes;D_2__Bacteroidia ::: D_0__Bacteria;D_1__Bacteroidetes;D_2__Bacteroidia;D_3__Flavobacteriales ::: D_0__Bacteria;D_1__Bacteroidetes;D_2__Bacteroidia;D_3__Flavobacteriales;D_4__Flavobacteriaceae ::: D_0__Bacteria;D_1__Bacteroidetes;D_2__Bacteroidia;D_3__Flavobacteriales;D_4__Flavobacteriaceae;D_5__Tenacibaculum ::: D_0__Bacteria;D_1__Bacteroidetes;D_2__Bacteroidia;D_3__Flavobacteriales;D_4__Flavobacteriaceae;D_5__Tenacibaculum;D_6__Flexibacter aurantiacus subsp. copepodarum	15	0	0	0	0	0
D_0__Bacteria ::: D_0__Bacteria;D_1__Bacteroidetes ::: D_0__Bacteria;D_1__Bacteroidetes;D_2__Bacteroidia ::: D_0__Bacteria;D_1__Bacteroidetes;D_2__Bacteroidia;D_3__Flavobacteriales ::: D_0__Bacteria;D_1__Bacteroidetes;D_2__Bacteroidia;D_3__Flavobacteriales;D_4__Flavobacteriaceae ::: D_0__Bacteria;D_1__Bacteroidetes;D_2__Bacteroidia;D_3__Flavobacteriales;D_4__Flavobacteriaceae;D_5__Tenacibaculum ::: D_0__Bacteria;D_1__Bacteroidetes;D_2__Bacteroidia;D_3__Flavobacteriales;D_4__Flavobacteriaceae;D_5__Tenacibaculum;D_6__Tenacibaculum aiptasiae	35	66	0	0	0	0
D_0__Bacteria ::: D_0__Bacteria;D_1__Bacteroidetes ::: D_0__Bacteria;D_1__Bacteroidetes;D_2__Bacteroidia ::: D_0__Bacteria;D_1__Bacteroidetes;D_2__Bacteroidia;D_3__Flavobacteriales ::: D_0__Bacteria;D_1__Bacteroidetes;D_2__Bacteroidia;D_3__Flavobacteriales;D_4__Flavobacteriaceae ::: D_0__Bacteria;D_1__Bacteroidetes;D_2__Bacteroidia;D_3__Flavobacteriales;D_4__Flavobacteriaceae;D_5__[Polaribacter] huanghezhanensis	0	0	12171	571	1892	0
D_0__Bacteria ::: D_0__Bacteria;D_1__Bacteroidetes ::: D_0__Bacteria;D_1__Bacteroidetes;D_2__Bacteroidia ::: D_0__Bacteria;D_1__Bacteroidetes;D_2__Bacteroidia;D_3__Flavobacteriales ::: D_0__Bacteria;D_1__Bacteroidetes;D_2__Bacteroidia;D_3__Flavobacteriales;D_4__NS9 marine group ::: D_0__Bacteria;D_1__Bacteroidetes;D_2__Bacteroidia;D_3__Flavobacteriales;D_4__NS9 marine group;D_5__uncultured bacterium ::: D_0__Bacteria;D_1__Bacteroidetes;D_2__Bacteroidia;D_3__Flavobacteriales;D_4__NS9 marine group;D_5__uncultured bacterium;D_6__uncultured bacterium	0	0	33	55	0	0
D_0__Bacteria ::: D_0__Bacteria;D_1__Bacteroidetes ::: D_0__Bacteria;D_1__Bacteroidetes;D_2__Bacteroidia ::: D_0__Bacteria;D_1__Bacteroidetes;D_2__Bacteroidia;D_3__Sphingobacteriales ::: D_0__Bacteria;D_1__Bacteroidetes;D_2__Bacteroidia;D_3__Sphingobacteriales;D_4__Lentimicrobiaceae ::: D_0__Bacteria;D_1__Bacteroidetes;D_2__Bacteroidia;D_3__Sphingobacteriales;D_4__Lentimicrobiaceae;D_5__Lentimicrobium	0	33	0	0	0	0
D_0__Bacteria ::: D_0__Bacteria;D_1__Bacteroidetes ::: D_0__Bacteria;D_1__Bacteroidetes;D_2__Bacteroidia ::: D_0__Bacteria;D_1__Bacteroidetes;D_2__Bacteroidia;D_3__Sphingobacteriales ::: D_0__Bacteria;D_1__Bacteroidetes;D_2__Bacteroidia;D_3__Sphingobacteriales;D_4__Sphingobacteriaceae ::: D_0__Bacteria;D_1__Bacteroidetes;D_2__Bacteroidia;D_3__Sphingobacteriales;D_4__Sphingobacteriaceae;D_5__Pedobacter ::: D_0__Bacteria;D_1__Bacteroidetes;D_2__Bacteroidia;D_3__Sphingobacteriales;D_4__Sphingobacteriaceae;D_5__Pedobacter;Ambiguous_taxa	0	0	8	0	0	0
D_0__Bacteria ::: D_0__Bacteria;D_1__Bacteroidetes ::: D_0__Bacteria;D_1__Bacteroidetes;D_2__Ignavibacteria ::: D_0__Bacteria;D_1__Bacteroidetes;D_2__Ignavibacteria;D_3__OPB56 ::: D_0__Bacteria;D_1__Bacteroidetes;D_2__Ignavibacteria;D_3__OPB56;D_4__uncultured bacterium ::: D_0__Bacteria;D_1__Bacteroidetes;D_2__Ignavibacteria;D_3__OPB56;D_4__uncultured bacterium;D_5__uncultured bacterium	0	0	0	0	0	2
D_0__Bacteria ::: D_0__Bacteria;D_1__Chloroflexi ::: D_0__Bacteria;D_1__Chloroflexi;D_2__Anaerolineae ::: D_0__Bacteria;D_1__Chloroflexi;D_2__Anaerolineae;D_3__Anaerolineales ::: D_0__Bacteria;D_1__Chloroflexi;D_2__Anaerolineae;D_3__Anaerolineales;D_4__Anaerolineaceae ::: D_0__Bacteria;D_1__Chloroflexi;D_2__Anaerolineae;D_3__Anaerolineales;D_4__Anaerolineaceae;D_5__UTCFX1 ::: D_0__Bacteria;D_1__Chloroflexi;D_2__Anaerolineae;D_3__Anaerolineales;D_4__Anaerolineaceae;D_5__UTCFX1;D_6__uncultured bacterium	0	236	0	0	0	201
D_0__Bacteria ::: D_0__Bacteria;D_1__Cyanobacteria ::: D_0__Bacteria;D_1__Cyanobacteria;D_2__Oxyphotobacteria ::: D_0__Bacteria;D_1__Cyanobacteria;D_2__Oxyphotobacteria;D_3__Chloroplast ::: D_0__Bacteria;D_1__Cyanobacteria;D_2__Oxyphotobacteria;D_3__Chloroplast;Ambiguous_taxa ::: D_0__Bacteria;D_1__Cyanobacteria;D_2__Oxyphotobacteria;D_3__Chloroplast;Ambiguous_taxa;Ambiguous_taxa ::: D_0__Bacteria;D_1__Cyanobacteria;D_2__Oxyphotobacteria;D_3__Chloroplast;Ambiguous_taxa;Ambiguous_taxa;Ambiguous_taxa	0	53	0	0	0	0
D_0__Bacteria ::: D_0__Bacteria;D_1__Cyanobacteria ::: D_0__Bacteria;D_1__Cyanobacteria;D_2__Oxyphotobacteria ::: D_0__Bacteria;D_1__Cyanobacteria;D_2__Oxyphotobacteria;D_3__Chloroplast ::: D_0__Bacteria;D_1__Cyanobacteria;D_2__Oxyphotobacteria;D_3__Chloroplast;D_4__uncultured bacterium ::: D_0__Bacteria;D_1__Cyanobacteria;D_2__Oxyphotobacteria;D_3__Chloroplast;D_4__uncultured bacterium;D_5__uncultured bacterium ::: D_0__Bacteria;D_1__Cyanobacteria;D_2__Oxyphotobacteria;D_3__Chloroplast;D_4__uncultured bacterium;D_5__uncultured bacterium;D_6__uncultured bacterium	0	7	0	0	0	0
D_0__Bacteria ::: D_0__Bacteria;D_1__Cyanobacteria ::: D_0__Bacteria;D_1__Cyanobacteria;D_2__Oxyphotobacteria ::: D_0__Bacteria;D_1__Cyanobacteria;D_2__Oxyphotobacteria;D_3__Nostocales ::: D_0__Bacteria;D_1__Cyanobacteria;D_2__Oxyphotobacteria;D_3__Nostocales;D_4__Microcystaceae ::: D_0__Bacteria;D_1__Cyanobacteria;D_2__Oxyphotobacteria;D_3__Nostocales;D_4__Microcystaceae;D_5__Snowella 0TU37S04	0	10	0	0	0	0
D_0__Bacteria ::: D_0__Bacteria;D_1__Cyanobacteria ::: D_0__Bacteria;D_1__Cyanobacteria;D_2__Oxyphotobacteria ::: D_0__Bacteria;D_1__Cyanobacteria;D_2__Oxyphotobacteria;D_3__Synechococcales ::: D_0__Bacteria;D_1__Cyanobacteria;D_2__Oxyphotobacteria;D_3__Synechococcales;D_4__Cyanobiaceae ::: D_0__Bacteria;D_1__Cyanobacteria;D_2__Oxyphotobacteria;D_3__Synechococcales;D_4__Cyanobiaceae;D_5__Cyanobium PCC-6307 ::: D_0__Bacteria;D_1__Cyanobacteria;D_2__Oxyphotobacteria;D_3__Synechococcales;D_4__Cyanobiaceae;D_5__Cyanobium PCC-6307;D_6__uncultured marine bacterium	0	33	0	0	0	0
D_0__Bacteria ::: D_0__Bacteria;D_1__Cyanobacteria ::: D_0__Bacteria;D_1__Cyanobacteria;D_2__Oxyphotobacteria ::: D_0__Bacteria;D_1__Cyanobacteria;D_2__Oxyphotobacteria;D_3__Synechococcales ::: D_0__Bacteria;D_1__Cyanobacteria;D_2__Oxyphotobacteria;D_3__Synechococcales;D_4__Cyanobiaceae ::: D_0__Bacteria;D_1__Cyanobacteria;D_2__Oxyphotobacteria;D_3__Synechococcales;D_4__Cyanobiaceae;D_5__Prochlorococcus MIT9313 ::: D_0__Bacteria;D_1__Cyanobacteria;D_2__Oxyphotobacteria;D_3__Synechococcales;D_4__Cyanobiaceae;D_5__Prochlorococcus MIT9313;Ambiguous_taxa	338	0	0	0	0	0
D_0__Bacteria ::: D_0__Bacteria;D_1__Dadabacteria ::: D_0__Bacteria;D_1__Dadabacteria;D_2__Dadabacteriia ::: D_0__Bacteria;D_1__Dadabacteria;D_2__Dadabacteriia;D_3__Dadabacteriales	15	0	0	0	0	0
D_0__Bacteria ::: D_0__Bacteria;D_1__Dadabacteria ::: D_0__Bacteria;D_1__Dadabacteria;D_2__Dadabacteriia ::: D_0__Bacteria;D_1__Dadabacteria;D_2__Dadabacteriia;D_3__Dadabacteriales ::: D_0__Bacteria;D_1__Dadabacteria;D_2__Dadabacteriia;D_3__Dadabacteriales;D_4__uncultured bacterium ::: D_0__Bacteria;D_1__Dadabacteria;D_2__Dadabacteriia;D_3__Dadabacteriales;D_4__uncultured bacterium;D_5__uncultured bacterium ::: D_0__Bacteria;D_1__Dadabacteria;D_2__Dadabacteriia;D_3__Dadabacteriales;D_4__uncultured bacterium;D_5__uncultured bacterium;D_6__uncultured bacterium	24	0	0	0	0	0
D_0__Bacteria ::: D_0__Bacteria;D_1__Epsilonbacteraeota ::: D_0__Bacteria;D_1__Epsilonbacteraeota;D_2__Campylobacteria ::: D_0__Bacteria;D_1__Epsilonbacteraeota;D_2__Campylobacteria;D_3__Campylobacterales ::: D_0__Bacteria;D_1__Epsilonbacteraeota;D_2__Campylobacteria;D_3__Campylobacterales;D_4__Thiovulaceae ::: D_0__Bacteria;D_1__Epsilonbacteraeota;D_2__Campylobacteria;D_3__Campylobacterales;D_4__Thiovulaceae;D_5__Sulfurimonas ::: D_0__Bacteria;D_1__Epsilonbacteraeota;D_2__Campylobacteria;D_3__Campylobacterales;D_4__Thiovulaceae;D_5__Sulfurimonas;D_6__uncultured Epsilonproteobacteria bacterium	0	0	226	80	0	0
D_0__Bacteria ::: D_0__Bacteria;D_1__Firmicutes ::: D_0__Bacteria;D_1__Firmicutes;D_2__Bacilli ::: D_0__Bacteria;D_1__Firmicutes;D_2__Bacilli;D_3__Bacillales ::: D_0__Bacteria;D_1__Firmicutes;D_2__Bacilli;D_3__Bacillales;D_4__Alicyclobacillaceae ::: D_0__Bacteria;D_1__Firmicutes;D_2__Bacilli;D_3__Bacillales;D_4__Alicyclobacillaceae;D_5__Tumebacillus ::: D_0__Bacteria;D_1__Firmicutes;D_2__Bacilli;D_3__Bacillales;D_4__Alicyclobacillaceae;D_5__Tumebacillus;D_6__uncultured bacterium	0	42	0	0	0	0
D_0__Bacteria ::: D_0__Bacteria;D_1__Firmicutes ::: D_0__Bacteria;D_1__Firmicutes;D_2__Bacilli ::: D_0__Bacteria;D_1__Firmicutes;D_2__Bacilli;D_3__Bacillales ::: D_0__Bacteria;D_1__Firmicutes;D_2__Bacilli;D_3__Bacillales;D_4__Bacillaceae ::: D_0__Bacteria;D_1__Firmicutes;D_2__Bacilli;D_3__Bacillales;D_4__Bacillaceae;D_5__Bacillus ::: D_0__Bacteria;D_1__Firmicutes;D_2__Bacilli;D_3__Bacillales;D_4__Bacillaceae;D_5__Bacillus;Ambiguous_taxa	0	0	0	0	0	149
D_0__Bacteria ::: D_0__Bacteria;D_1__Firmicutes ::: D_0__Bacteria;D_1__Firmicutes;D_2__Bacilli ::: D_0__Bacteria;D_1__Firmicutes;D_2__Bacilli;D_3__Bacillales ::: D_0__Bacteria;D_1__Firmicutes;D_2__Bacilli;D_3__Bacillales;D_4__Bacillaceae ::: D_0__Bacteria;D_1__Firmicutes;D_2__Bacilli;D_3__Bacillales;D_4__Bacillaceae;D_5__Bacillus ::: D_0__Bacteria;D_1__Firmicutes;D_2__Bacilli;D_3__Bacillales;D_4__Bacillaceae;D_5__Bacillus;D_6__Bacillus endophyticus	0	0	0	0	53	0
D_0__Bacteria ::: D_0__Bacteria;D_1__Firmicutes ::: D_0__Bacteria;D_1__Firmicutes;D_2__Bacilli ::: D_0__Bacteria;D_1__Firmicutes;D_2__Bacilli;D_3__Bacillales ::: D_0__Bacteria;D_1__Firmicutes;D_2__Bacilli;D_3__Bacillales;D_4__Bacillaceae ::: D_0__Bacteria;D_1__Firmicutes;D_2__Bacilli;D_3__Bacillales;D_4__Bacillaceae;D_5__Bacillus ::: D_0__Bacteria;D_1__Firmicutes;D_2__Bacilli;D_3__Bacillales;D_4__Bacillaceae;D_5__Bacillus;D_6__Bacillus megaterium	0	14	0	0	0	0
D_0__Bacteria ::: D_0__Bacteria;D_1__Firmicutes ::: D_0__Bacteria;D_1__Firmicutes;D_2__Bacilli ::: D_0__Bacteria;D_1__Firmicutes;D_2__Bacilli;D_3__Bacillales ::: D_0__Bacteria;D_1__Firmicutes;D_2__Bacilli;D_3__Bacillales;D_4__Bacillaceae ::: D_0__Bacteria;D_1__Firmicutes;D_2__Bacilli;D_3__Bacillales;D_4__Bacillaceae;D_5__Bacillus ::: D_0__Bacteria;D_1__Firmicutes;D_2__Bacilli;D_3__Bacillales;D_4__Bacillaceae;D_5__Bacillus;D_6__uncultured bacterium	0	94	0	0	0	103
D_0__Bacteria ::: D_0__Bacteria;D_1__Firmicutes ::: D_0__Bacteria;D_1__Firmicutes;D_2__Bacilli ::: D_0__Bacteria;D_1__Firmicutes;D_2__Bacilli;D_3__Bacillales ::: D_0__Bacteria;D_1__Firmicutes;D_2__Bacilli;D_3__Bacillales;D_4__Planococcaceae ::: D_0__Bacteria;D_1__Firmicutes;D_2__Bacilli;D_3__Bacillales;D_4__Planococcaceae;D_5__Chryseomicrobium	0	0	72	0	0	0
D_0__Bacteria ::: D_0__Bacteria;D_1__Firmicutes ::: D_0__Bacteria;D_1__Firmicutes;D_2__Bacilli ::: D_0__Bacteria;D_1__Firmicutes;D_2__Bacilli;D_3__Bacillales ::: D_0__Bacteria;D_1__Firmicutes;D_2__Bacilli;D_3__Bacillales;D_4__Staphylococcaceae ::: D_0__Bacteria;D_1__Firmicutes;D_2__Bacilli;D_3__Bacillales;D_4__Staphylococcaceae;D_5__Staphylococcus ::: D_0__Bacteria;D_1__Firmicutes;D_2__Bacilli;D_3__Bacillales;D_4__Staphylococcaceae;D_5__Staphylococcus;Ambiguous_taxa	0	11	0	0	0	0
D_0__Bacteria ::: D_0__Bacteria;D_1__Firmicutes ::: D_0__Bacteria;D_1__Firmicutes;D_2__Bacilli ::: D_0__Bacteria;D_1__Firmicutes;D_2__Bacilli;D_3__Lactobacillales ::: D_0__Bacteria;D_1__Firmicutes;D_2__Bacilli;D_3__Lactobacillales;D_4__Carnobacteriaceae ::: D_0__Bacteria;D_1__Firmicutes;D_2__Bacilli;D_3__Lactobacillales;D_4__Carnobacteriaceae;D_5__Carnobacterium ::: D_0__Bacteria;D_1__Firmicutes;D_2__Bacilli;D_3__Lactobacillales;D_4__Carnobacteriaceae;D_5__Carnobacterium;Ambiguous_taxa	0	0	0	31	0	0
D_0__Bacteria ::: D_0__Bacteria;D_1__Firmicutes ::: D_0__Bacteria;D_1__Firmicutes;D_2__Clostridia ::: D_0__Bacteria;D_1__Firmicutes;D_2__Clostridia;D_3__Clostridiales ::: D_0__Bacteria;D_1__Firmicutes;D_2__Clostridia;D_3__Clostridiales;D_4__Christensenellaceae ::: D_0__Bacteria;D_1__Firmicutes;D_2__Clostridia;D_3__Clostridiales;D_4__Christensenellaceae;D_5__Christensenellaceae R-7 group ::: D_0__Bacteria;D_1__Firmicutes;D_2__Clostridia;D_3__Clostridiales;D_4__Christensenellaceae;D_5__Christensenellaceae R-7 group;D_6__uncultured bacterium	0	0	6	0	0	0
D_0__Bacteria ::: D_0__Bacteria;D_1__Firmicutes ::: D_0__Bacteria;D_1__Firmicutes;D_2__Clostridia ::: D_0__Bacteria;D_1__Firmicutes;D_2__Clostridia;D_3__Clostridiales ::: D_0__Bacteria;D_1__Firmicutes;D_2__Clostridia;D_3__Clostridiales;D_4__Clostridiaceae 1 ::: D_0__Bacteria;D_1__Firmicutes;D_2__Clostridia;D_3__Clostridiales;D_4__Clostridiaceae 1;D_5__Clostridium sensu stricto 10	0	9	0	0	0	0
D_0__Bacteria ::: D_0__Bacteria;D_1__Firmicutes ::: D_0__Bacteria;D_1__Firmicutes;D_2__Clostridia ::: D_0__Bacteria;D_1__Firmicutes;D_2__Clostridia;D_3__Clostridiales ::: D_0__Bacteria;D_1__Firmicutes;D_2__Clostridia;D_3__Clostridiales;D_4__Family XI ::: D_0__Bacteria;D_1__Firmicutes;D_2__Clostridia;D_3__Clostridiales;D_4__Family XI;D_5__Sedimentibacter ::: D_0__Bacteria;D_1__Firmicutes;D_2__Clostridia;D_3__Clostridiales;D_4__Family XI;D_5__Sedimentibacter;D_6__uncultured bacterium	0	11	0	0	0	0
D_0__Bacteria ::: D_0__Bacteria;D_1__Firmicutes ::: D_0__Bacteria;D_1__Firmicutes;D_2__Clostridia ::: D_0__Bacteria;D_1__Firmicutes;D_2__Clostridia;D_3__Clostridiales ::: D_0__Bacteria;D_1__Firmicutes;D_2__Clostridia;D_3__Clostridiales;D_4__Gracilibacteraceae ::: D_0__Bacteria;D_1__Firmicutes;D_2__Clostridia;D_3__Clostridiales;D_4__Gracilibacteraceae;D_5__Lutispora ::: D_0__Bacteria;D_1__Firmicutes;D_2__Clostridia;D_3__Clostridiales;D_4__Gracilibacteraceae;D_5__Lutispora;D_6__uncultured bacterium	0	0	0	0	5	0
D_0__Bacteria ::: D_0__Bacteria;D_1__Firmicutes ::: D_0__Bacteria;D_1__Firmicutes;D_2__Clostridia ::: D_0__Bacteria;D_1__Firmicutes;D_2__Clostridia;D_3__Clostridiales ::: D_0__Bacteria;D_1__Firmicutes;D_2__Clostridia;D_3__Clostridiales;D_4__Lachnospiraceae ::: D_0__Bacteria;D_1__Firmicutes;D_2__Clostridia;D_3__Clostridiales;D_4__Lachnospiraceae;D_5__Anaerosporobacter ::: D_0__Bacteria;D_1__Firmicutes;D_2__Clostridia;D_3__Clostridiales;D_4__Lachnospiraceae;D_5__Anaerosporobacter;D_6__uncultured Clostridium sp.	0	0	0	17	0	0
D_0__Bacteria ::: D_0__Bacteria;D_1__Lentisphaerae ::: D_0__Bacteria;D_1__Lentisphaerae;D_2__Lentisphaeria ::: D_0__Bacteria;D_1__Lentisphaerae;D_2__Lentisphaeria;D_3__Victivallales ::: D_0__Bacteria;D_1__Lentisphaerae;D_2__Lentisphaeria;D_3__Victivallales;D_4__Arctic95B-14 ::: D_0__Bacteria;D_1__Lentisphaerae;D_2__Lentisphaeria;D_3__Victivallales;D_4__Arctic95B-14;D_5__uncultured bacterium	0	0	0	60	0	0
D_0__Bacteria ::: D_0__Bacteria;D_1__Marinimicrobia (SAR406 clade) ::: D_0__Bacteria;D_1__Marinimicrobia (SAR406 clade);D_2__Alteromonas macleodii ::: D_0__Bacteria;D_1__Marinimicrobia (SAR406 clade);D_2__Alteromonas macleodii;D_3__Alteromonas macleodii ::: D_0__Bacteria;D_1__Marinimicrobia (SAR406 clade);D_2__Alteromonas macleodii;D_3__Alteromonas macleodii;D_4__Alteromonas macleodii ::: D_0__Bacteria;D_1__Marinimicrobia (SAR406 clade);D_2__Alteromonas macleodii;D_3__Alteromonas macleodii;D_4__Alteromonas macleodii;D_5__Alteromonas macleodii ::: D_0__Bacteria;D_1__Marinimicrobia (SAR406 clade);D_2__Alteromonas macleodii;D_3__Alteromonas macleodii;D_4__Alteromonas macleodii;D_5__Alteromonas macleodii;D_6__Alteromonas macleodii	22	0	0	0	0	0
D_0__Bacteria ::: D_0__Bacteria;D_1__Planctomycetes ::: D_0__Bacteria;D_1__Planctomycetes;D_2__OM190 ::: D_0__Bacteria;D_1__Planctomycetes;D_2__OM190;Ambiguous_taxa ::: D_0__Bacteria;D_1__Planctomycetes;D_2__OM190;Ambiguous_taxa;Ambiguous_taxa ::: D_0__Bacteria;D_1__Planctomycetes;D_2__OM190;Ambiguous_taxa;Ambiguous_taxa;Ambiguous_taxa ::: D_0__Bacteria;D_1__Planctomycetes;D_2__OM190;Ambiguous_taxa;Ambiguous_taxa;Ambiguous_taxa;Ambiguous_taxa	0	0	0	86	0	0
D_0__Bacteria ::: D_0__Bacteria;D_1__Planctomycetes ::: D_0__Bacteria;D_1__Planctomycetes;D_2__OM190 ::: D_0__Bacteria;D_1__Planctomycetes;D_2__OM190;D_3__uncultured bacterium ::: D_0__Bacteria;D_1__Planctomycetes;D_2__OM190;D_3__uncultured bacterium;D_4__uncultured bacterium ::: D_0__Bacteria;D_1__Planctomycetes;D_2__OM190;D_3__uncultured bacterium;D_4__uncultured bacterium;D_5__uncultured bacterium	0	0	0	138	0	0
D_0__Bacteria ::: D_0__Bacteria;D_1__Planctomycetes ::: D_0__Bacteria;D_1__Planctomycetes;D_2__OM190 ::: D_0__Bacteria;D_1__Planctomycetes;D_2__OM190;D_3__uncultured bacterium ::: D_0__Bacteria;D_1__Planctomycetes;D_2__OM190;D_3__uncultured bacterium;D_4__uncultured bacterium ::: D_0__Bacteria;D_1__Planctomycetes;D_2__OM190;D_3__uncultured bacterium;D_4__uncultured bacterium;D_5__uncultured bacterium ::: D_0__Bacteria;D_1__Planctomycetes;D_2__OM190;D_3__uncultured bacterium;D_4__uncultured bacterium;D_5__uncultured bacterium;D_6__uncultured bacterium	0	0	0	197	0	0
D_0__Bacteria ::: D_0__Bacteria;D_1__Planctomycetes ::: D_0__Bacteria;D_1__Planctomycetes;D_2__OM190 ::: D_0__Bacteria;D_1__Planctomycetes;D_2__OM190;D_3__uncultured planctomycete ::: D_0__Bacteria;D_1__Planctomycetes;D_2__OM190;D_3__uncultured planctomycete;D_4__uncultured planctomycete ::: D_0__Bacteria;D_1__Planctomycetes;D_2__OM190;D_3__uncultured planctomycete;D_4__uncultured planctomycete;D_5__uncultured planctomycete ::: D_0__Bacteria;D_1__Planctomycetes;D_2__OM190;D_3__uncultured planctomycete;D_4__uncultured planctomycete;D_5__uncultured planctomycete;D_6__uncultured planctomycete	0	0	0	118	0	0
D_0__Bacteria ::: D_0__Bacteria;D_1__Planctomycetes ::: D_0__Bacteria;D_1__Planctomycetes;D_2__Phycisphaerae ::: D_0__Bacteria;D_1__Planctomycetes;D_2__Phycisphaerae;D_3__Phycisphaerales ::: D_0__Bacteria;D_1__Planctomycetes;D_2__Phycisphaerae;D_3__Phycisphaerales;D_4__Phycisphaeraceae ::: D_0__Bacteria;D_1__Planctomycetes;D_2__Phycisphaerae;D_3__Phycisphaerales;D_4__Phycisphaeraceae;D_5__JL-ETNP-F27 ::: D_0__Bacteria;D_1__Planctomycetes;D_2__Phycisphaerae;D_3__Phycisphaerales;D_4__Phycisphaeraceae;D_5__JL-ETNP-F27;Ambiguous_taxa	0	0	128	457	0	0
D_0__Bacteria ::: D_0__Bacteria;D_1__Planctomycetes ::: D_0__Bacteria;D_1__Planctomycetes;D_2__Planctomycetacia ::: D_0__Bacteria;D_1__Planctomycetes;D_2__Planctomycetacia;D_3__Pirellulales ::: D_0__Bacteria;D_1__Planctomycetes;D_2__Planctomycetacia;D_3__Pirellulales;D_4__Pirellulaceae ::: D_0__Bacteria;D_1__Planctomycetes;D_2__Planctomycetacia;D_3__Pirellulales;D_4__Pirellulaceae;D_5__Pirellula ::: D_0__Bacteria;D_1__Planctomycetes;D_2__Planctomycetacia;D_3__Pirellulales;D_4__Pirellulaceae;D_5__Pirellula;D_6__uncultured bacterium	0	4	0	0	0	0
D_0__Bacteria ::: D_0__Bacteria;D_1__Planctomycetes ::: D_0__Bacteria;D_1__Planctomycetes;D_2__Planctomycetacia ::: D_0__Bacteria;D_1__Planctomycetes;D_2__Planctomycetacia;D_3__Pirellulales ::: D_0__Bacteria;D_1__Planctomycetes;D_2__Planctomycetacia;D_3__Pirellulales;D_4__Pirellulaceae ::: D_0__Bacteria;D_1__Planctomycetes;D_2__Planctomycetacia;D_3__Pirellulales;D_4__Pirellulaceae;D_5__Rhodopirellula ::: D_0__Bacteria;D_1__Planctomycetes;D_2__Planctomycetacia;D_3__Pirellulales;D_4__Pirellulaceae;D_5__Rhodopirellula;D_6__uncultured marine microorganism	40	0	0	0	0	0
D_0__Bacteria ::: D_0__Bacteria;D_1__Planctomycetes ::: D_0__Bacteria;D_1__Planctomycetes;D_2__Planctomycetacia ::: D_0__Bacteria;D_1__Planctomycetes;D_2__Planctomycetacia;D_3__Pirellulales ::: D_0__Bacteria;D_1__Planctomycetes;D_2__Planctomycetacia;D_3__Pirellulales;D_4__Pirellulaceae ::: D_0__Bacteria;D_1__Planctomycetes;D_2__Planctomycetacia;D_3__Pirellulales;D_4__Pirellulaceae;D_5__uncultured ::: D_0__Bacteria;D_1__Planctomycetes;D_2__Planctomycetacia;D_3__Pirellulales;D_4__Pirellulaceae;D_5__uncultured;Ambiguous_taxa	66	0	0	0	0	0
D_0__Bacteria ::: D_0__Bacteria;D_1__Planctomycetes ::: D_0__Bacteria;D_1__Planctomycetes;D_2__Planctomycetacia ::: D_0__Bacteria;D_1__Planctomycetes;D_2__Planctomycetacia;D_3__Pirellulales ::: D_0__Bacteria;D_1__Planctomycetes;D_2__Planctomycetacia;D_3__Pirellulales;D_4__Pirellulaceae ::: D_0__Bacteria;D_1__Planctomycetes;D_2__Planctomycetacia;D_3__Pirellulales;D_4__Pirellulaceae;D_5__uncultured ::: D_0__Bacteria;D_1__Planctomycetes;D_2__Planctomycetacia;D_3__Pirellulales;D_4__Pirellulaceae;D_5__uncultured;D_6__uncultured bacterium	55	0	0	0	0	0
D_0__Bacteria ::: D_0__Bacteria;D_1__Proteobacteria ::: D_0__Bacteria;D_1__Proteobacteria;D_2__Alphaproteobacteria ::: D_0__Bacteria;D_1__Proteobacteria;D_2__Alphaproteobacteria;D_3__Caulobacterales ::: D_0__Bacteria;D_1__Proteobacteria;D_2__Alphaproteobacteria;D_3__Caulobacterales;D_4__Hyphomonadaceae ::: D_0__Bacteria;D_1__Proteobacteria;D_2__Alphaproteobacteria;D_3__Caulobacterales;D_4__Hyphomonadaceae;D_5__Hyphomonas ::: D_0__Bacteria;D_1__Proteobacteria;D_2__Alphaproteobacteria;D_3__Caulobacterales;D_4__Hyphomonadaceae;D_5__Hyphomonas;D_6__uncultured bacterium	17	0	0	0	0	0
D_0__Bacteria ::: D_0__Bacteria;D_1__Proteobacteria ::: D_0__Bacteria;D_1__Proteobacteria;D_2__Alphaproteobacteria ::: D_0__Bacteria;D_1__Proteobacteria;D_2__Alphaproteobacteria;D_3__Caulobacterales ::: D_0__Bacteria;D_1__Proteobacteria;D_2__Alphaproteobacteria;D_3__Caulobacterales;D_4__Hyphomonadaceae ::: D_0__Bacteria;D_1__Proteobacteria;D_2__Alphaproteobacteria;D_3__Caulobacterales;D_4__Hyphomonadaceae;D_5__uncultured ::: D_0__Bacteria;D_1__Proteobacteria;D_2__Alphaproteobacteria;D_3__Caulobacterales;D_4__Hyphomonadaceae;D_5__uncultured;D_6__Hyphomonadaceae bacterium JNU-L072	0	0	0	0	222	0
D_0__Bacteria ::: D_0__Bacteria;D_1__Proteobacteria ::: D_0__Bacteria;D_1__Proteobacteria;D_2__Alphaproteobacteria ::: D_0__Bacteria;D_1__Proteobacteria;D_2__Alphaproteobacteria;D_3__Parvibaculales ::: D_0__Bacteria;D_1__Proteobacteria;D_2__Alphaproteobacteria;D_3__Parvibaculales;D_4__OCS116 clade ::: D_0__Bacteria;D_1__Proteobacteria;D_2__Alphaproteobacteria;D_3__Parvibaculales;D_4__OCS116 clade;Ambiguous_taxa ::: D_0__Bacteria;D_1__Proteobacteria;D_2__Alphaproteobacteria;D_3__Parvibaculales;D_4__OCS116 clade;Ambiguous_taxa;Ambiguous_taxa	66	0	0	0	0	0
D_0__Bacteria ::: D_0__Bacteria;D_1__Proteobacteria ::: D_0__Bacteria;D_1__Proteobacteria;D_2__Alphaproteobacteria ::: D_0__Bacteria;D_1__Proteobacteria;D_2__Alphaproteobacteria;D_3__Parvibaculales ::: D_0__Bacteria;D_1__Proteobacteria;D_2__Alphaproteobacteria;D_3__Parvibaculales;D_4__Parvibaculaceae ::: D_0__Bacteria;D_1__Proteobacteria;D_2__Alphaproteobacteria;D_3__Parvibaculales;D_4__Parvibaculaceae;D_5__Mf105b01	0	14	4356	16336	0	0
D_0__Bacteria ::: D_0__Bacteria;D_1__Proteobacteria ::: D_0__Bacteria;D_1__Proteobacteria;D_2__Alphaproteobacteria ::: D_0__Bacteria;D_1__Proteobacteria;D_2__Alphaproteobacteria;D_3__Puniceispirillales ::: D_0__Bacteria;D_1__Proteobacteria;D_2__Alphaproteobacteria;D_3__Puniceispirillales;D_4__SAR116 clade	5	0	0	0	0	0
D_0__Bacteria ::: D_0__Bacteria;D_1__Proteobacteria ::: D_0__Bacteria;D_1__Proteobacteria;D_2__Alphaproteobacteria ::: D_0__Bacteria;D_1__Proteobacteria;D_2__Alphaproteobacteria;D_3__Puniceispirillales ::: D_0__Bacteria;D_1__Proteobacteria;D_2__Alphaproteobacteria;D_3__Puniceispirillales;D_4__SAR116 clade ::: D_0__Bacteria;D_1__Proteobacteria;D_2__Alphaproteobacteria;D_3__Puniceispirillales;D_4__SAR116 clade;Ambiguous_taxa ::: D_0__Bacteria;D_1__Proteobacteria;D_2__Alphaproteobacteria;D_3__Puniceispirillales;D_4__SAR116 clade;Ambiguous_taxa;Ambiguous_taxa	31	0	0	0	0	0
D_0__Bacteria ::: D_0__Bacteria;D_1__Proteobacteria ::: D_0__Bacteria;D_1__Proteobacteria;D_2__Alphaproteobacteria ::: D_0__Bacteria;D_1__Proteobacteria;D_2__Alphaproteobacteria;D_3__Puniceispirillales ::: D_0__Bacteria;D_1__Proteobacteria;D_2__Alphaproteobacteria;D_3__Puniceispirillales;D_4__SAR116 clade ::: D_0__Bacteria;D_1__Proteobacteria;D_2__Alphaproteobacteria;D_3__Puniceispirillales;D_4__SAR116 clade;D_5__uncultured bacterium ::: D_0__Bacteria;D_1__Proteobacteria;D_2__Alphaproteobacteria;D_3__Puniceispirillales;D_4__SAR116 clade;D_5__uncultured bacterium;D_6__uncultured bacterium	15	0	0	0	0	0
D_0__Bacteria ::: D_0__Bacteria;D_1__Proteobacteria ::: D_0__Bacteria;D_1__Proteobacteria;D_2__Alphaproteobacteria ::: D_0__Bacteria;D_1__Proteobacteria;D_2__Alphaproteobacteria;D_3__Rhizobiales ::: D_0__Bacteria;D_1__Proteobacteria;D_2__Alphaproteobacteria;D_3__Rhizobiales;D_4__Beijerinckiaceae ::: D_0__Bacteria;D_1__Proteobacteria;D_2__Alphaproteobacteria;D_3__Rhizobiales;D_4__Beijerinckiaceae;D_5__Microvirga ::: D_0__Bacteria;D_1__Proteobacteria;D_2__Alphaproteobacteria;D_3__Rhizobiales;D_4__Beijerinckiaceae;D_5__Microvirga;D_6__uncultured bacterium	0	31	0	0	0	0
D_0__Bacteria ::: D_0__Bacteria;D_1__Proteobacteria ::: D_0__Bacteria;D_1__Proteobacteria;D_2__Alphaproteobacteria ::: D_0__Bacteria;D_1__Proteobacteria;D_2__Alphaproteobacteria;D_3__Rhizobiales ::: D_0__Bacteria;D_1__Proteobacteria;D_2__Alphaproteobacteria;D_3__Rhizobiales;D_4__Hyphomicrobiaceae ::: D_0__Bacteria;D_1__Proteobacteria;D_2__Alphaproteobacteria;D_3__Rhizobiales;D_4__Hyphomicrobiaceae;D_5__Pedomicrobium ::: D_0__Bacteria;D_1__Proteobacteria;D_2__Alphaproteobacteria;D_3__Rhizobiales;D_4__Hyphomicrobiaceae;D_5__Pedomicrobium;D_6__uncultured bacterium	0	7	0	0	0	0
D_0__Bacteria ::: D_0__Bacteria;D_1__Proteobacteria ::: D_0__Bacteria;D_1__Proteobacteria;D_2__Alphaproteobacteria ::: D_0__Bacteria;D_1__Proteobacteria;D_2__Alphaproteobacteria;D_3__Rhizobiales ::: D_0__Bacteria;D_1__Proteobacteria;D_2__Alphaproteobacteria;D_3__Rhizobiales;D_4__Rhizobiaceae ::: D_0__Bacteria;D_1__Proteobacteria;D_2__Alphaproteobacteria;D_3__Rhizobiales;D_4__Rhizobiaceae;D_5__Allorhizobium-Neorhizobium-Pararhizobium-Rhizobium ::: D_0__Bacteria;D_1__Proteobacteria;D_2__Alphaproteobacteria;D_3__Rhizobiales;D_4__Rhizobiaceae;D_5__Allorhizobium-Neorhizobium-Pararhizobium-Rhizobium;Ambiguous_taxa	0	0	0	0	0	282
D_0__Bacteria ::: D_0__Bacteria;D_1__Proteobacteria ::: D_0__Bacteria;D_1__Proteobacteria;D_2__Alphaproteobacteria ::: D_0__Bacteria;D_1__Proteobacteria;D_2__Alphaproteobacteria;D_3__Rhizobiales ::: D_0__Bacteria;D_1__Proteobacteria;D_2__Alphaproteobacteria;D_3__Rhizobiales;D_4__Rhizobiaceae ::: D_0__Bacteria;D_1__Proteobacteria;D_2__Alphaproteobacteria;D_3__Rhizobiales;D_4__Rhizobiaceae;D_5__uncultured	0	0	322	335	1082	0
D_0__Bacteria ::: D_0__Bacteria;D_1__Proteobacteria ::: D_0__Bacteria;D_1__Proteobacteria;D_2__Alphaproteobacteria ::: D_0__Bacteria;D_1__Proteobacteria;D_2__Alphaproteobacteria;D_3__Rhizobiales ::: D_0__Bacteria;D_1__Proteobacteria;D_2__Alphaproteobacteria;D_3__Rhizobiales;D_4__Rhizobiaceae ::: D_0__Bacteria;D_1__Proteobacteria;D_2__Alphaproteobacteria;D_3__Rhizobiales;D_4__Rhizobiaceae;D_5__uncultured ::: D_0__Bacteria;D_1__Proteobacteria;D_2__Alphaproteobacteria;D_3__Rhizobiales;D_4__Rhizobiaceae;D_5__uncultured;D_6__uncultured alpha proteobacterium	131	0	0	0	0	0
D_0__Bacteria ::: D_0__Bacteria;D_1__Proteobacteria ::: D_0__Bacteria;D_1__Proteobacteria;D_2__Alphaproteobacteria ::: D_0__Bacteria;D_1__Proteobacteria;D_2__Alphaproteobacteria;D_3__Rhodobacterales ::: D_0__Bacteria;D_1__Proteobacteria;D_2__Alphaproteobacteria;D_3__Rhodobacterales;D_4__Rhodobacteraceae	0	0	0	110	0	0
D_0__Bacteria ::: D_0__Bacteria;D_1__Proteobacteria ::: D_0__Bacteria;D_1__Proteobacteria;D_2__Alphaproteobacteria ::: D_0__Bacteria;D_1__Proteobacteria;D_2__Alphaproteobacteria;D_3__Rhodobacterales ::: D_0__Bacteria;D_1__Proteobacteria;D_2__Alphaproteobacteria;D_3__Rhodobacterales;D_4__Rhodobacteraceae ::: D_0__Bacteria;D_1__Proteobacteria;D_2__Alphaproteobacteria;D_3__Rhodobacterales;D_4__Rhodobacteraceae;D_5__Jannaschia ::: D_0__Bacteria;D_1__Proteobacteria;D_2__Alphaproteobacteria;D_3__Rhodobacterales;D_4__Rhodobacteraceae;D_5__Jannaschia;D_6__uncultured bacterium	28	0	0	0	0	0
D_0__Bacteria ::: D_0__Bacteria;D_1__Proteobacteria ::: D_0__Bacteria;D_1__Proteobacteria;D_2__Alphaproteobacteria ::: D_0__Bacteria;D_1__Proteobacteria;D_2__Alphaproteobacteria;D_3__Rhodobacterales ::: D_0__Bacteria;D_1__Proteobacteria;D_2__Alphaproteobacteria;D_3__Rhodobacterales;D_4__Rhodobacteraceae ::: D_0__Bacteria;D_1__Proteobacteria;D_2__Alphaproteobacteria;D_3__Rhodobacterales;D_4__Rhodobacteraceae;D_5__Loktanella	0	0	0	119	0	0
D_0__Bacteria ::: D_0__Bacteria;D_1__Proteobacteria ::: D_0__Bacteria;D_1__Proteobacteria;D_2__Alphaproteobacteria ::: D_0__Bacteria;D_1__Proteobacteria;D_2__Alphaproteobacteria;D_3__Rhodobacterales ::: D_0__Bacteria;D_1__Proteobacteria;D_2__Alphaproteobacteria;D_3__Rhodobacterales;D_4__Rhodobacteraceae ::: D_0__Bacteria;D_1__Proteobacteria;D_2__Alphaproteobacteria;D_3__Rhodobacterales;D_4__Rhodobacteraceae;D_5__Loktanella ::: D_0__Bacteria;D_1__Proteobacteria;D_2__Alphaproteobacteria;D_3__Rhodobacterales;D_4__Rhodobacteraceae;D_5__Loktanella;Ambiguous_taxa	3445	552	0	0	7	0
D_0__Bacteria ::: D_0__Bacteria;D_1__Proteobacteria ::: D_0__Bacteria;D_1__Proteobacteria;D_2__Alphaproteobacteria ::: D_0__Bacteria;D_1__Proteobacteria;D_2__Alphaproteobacteria;D_3__Rhodobacterales ::: D_0__Bacteria;D_1__Proteobacteria;D_2__Alphaproteobacteria;D_3__Rhodobacterales;D_4__Rhodobacteraceae ::: D_0__Bacteria;D_1__Proteobacteria;D_2__Alphaproteobacteria;D_3__Rhodobacterales;D_4__Rhodobacteraceae;D_5__Sedimentitalea	0	0	0	158	0	0
D_0__Bacteria ::: D_0__Bacteria;D_1__Proteobacteria ::: D_0__Bacteria;D_1__Proteobacteria;D_2__Alphaproteobacteria ::: D_0__Bacteria;D_1__Proteobacteria;D_2__Alphaproteobacteria;D_3__Rhodobacterales ::: D_0__Bacteria;D_1__Proteobacteria;D_2__Alphaproteobacteria;D_3__Rhodobacterales;D_4__Rhodobacteraceae ::: D_0__Bacteria;D_1__Proteobacteria;D_2__Alphaproteobacteria;D_3__Rhodobacterales;D_4__Rhodobacteraceae;D_5__Sedimentitalea ::: D_0__Bacteria;D_1__Proteobacteria;D_2__Alphaproteobacteria;D_3__Rhodobacterales;D_4__Rhodobacteraceae;D_5__Sedimentitalea;D_6__uncultured bacterium	0	0	433	308	0	0
D_0__Bacteria ::: D_0__Bacteria;D_1__Proteobacteria ::: D_0__Bacteria;D_1__Proteobacteria;D_2__Alphaproteobacteria ::: D_0__Bacteria;D_1__Proteobacteria;D_2__Alphaproteobacteria;D_3__Rhodobacterales ::: D_0__Bacteria;D_1__Proteobacteria;D_2__Alphaproteobacteria;D_3__Rhodobacterales;D_4__Rhodobacteraceae ::: D_0__Bacteria;D_1__Proteobacteria;D_2__Alphaproteobacteria;D_3__Rhodobacterales;D_4__Rhodobacteraceae;D_5__Seohaeicola	2805	70	0	0	0	0
D_0__Bacteria ::: D_0__Bacteria;D_1__Proteobacteria ::: D_0__Bacteria;D_1__Proteobacteria;D_2__Alphaproteobacteria ::: D_0__Bacteria;D_1__Proteobacteria;D_2__Alphaproteobacteria;D_3__Rhodobacterales ::: D_0__Bacteria;D_1__Proteobacteria;D_2__Alphaproteobacteria;D_3__Rhodobacterales;D_4__Rhodobacteraceae ::: D_0__Bacteria;D_1__Proteobacteria;D_2__Alphaproteobacteria;D_3__Rhodobacterales;D_4__Rhodobacteraceae;D_5__Sulfitobacter ::: D_0__Bacteria;D_1__Proteobacteria;D_2__Alphaproteobacteria;D_3__Rhodobacterales;D_4__Rhodobacteraceae;D_5__Sulfitobacter;Ambiguous_taxa	12	0	0	0	0	0
D_0__Bacteria ::: D_0__Bacteria;D_1__Proteobacteria ::: D_0__Bacteria;D_1__Proteobacteria;D_2__Alphaproteobacteria ::: D_0__Bacteria;D_1__Proteobacteria;D_2__Alphaproteobacteria;D_3__Rhodobacterales ::: D_0__Bacteria;D_1__Proteobacteria;D_2__Alphaproteobacteria;D_3__Rhodobacterales;D_4__Rhodobacteraceae ::: D_0__Bacteria;D_1__Proteobacteria;D_2__Alphaproteobacteria;D_3__Rhodobacterales;D_4__Rhodobacteraceae;D_5__uncultured ::: D_0__Bacteria;D_1__Proteobacteria;D_2__Alphaproteobacteria;D_3__Rhodobacterales;D_4__Rhodobacteraceae;D_5__uncultured;Ambiguous_taxa	27	0	410	1782	240	0
D_0__Bacteria ::: D_0__Bacteria;D_1__Proteobacteria ::: D_0__Bacteria;D_1__Proteobacteria;D_2__Alphaproteobacteria ::: D_0__Bacteria;D_1__Proteobacteria;D_2__Alphaproteobacteria;D_3__Rhodobacterales ::: D_0__Bacteria;D_1__Proteobacteria;D_2__Alphaproteobacteria;D_3__Rhodobacterales;D_4__Rhodobacteraceae ::: D_0__Bacteria;D_1__Proteobacteria;D_2__Alphaproteobacteria;D_3__Rhodobacterales;D_4__Rhodobacteraceae;D_5__uncultured ::: D_0__Bacteria;D_1__Proteobacteria;D_2__Alphaproteobacteria;D_3__Rhodobacterales;D_4__Rhodobacteraceae;D_5__uncultured;D_6__uncultured bacterium	359	0	0	0	0	0
D_0__Bacteria ::: D_0__Bacteria;D_1__Proteobacteria ::: D_0__Bacteria;D_1__Proteobacteria;D_2__Alphaproteobacteria ::: D_0__Bacteria;D_1__Proteobacteria;D_2__Alphaproteobacteria;D_3__Rhodospirillales ::: D_0__Bacteria;D_1__Proteobacteria;D_2__Alphaproteobacteria;D_3__Rhodospirillales;D_4__Magnetospiraceae ::: D_0__Bacteria;D_1__Proteobacteria;D_2__Alphaproteobacteria;D_3__Rhodospirillales;D_4__Magnetospiraceae;D_5__Magnetospira ::: D_0__Bacteria;D_1__Proteobacteria;D_2__Alphaproteobacteria;D_3__Rhodospirillales;D_4__Magnetospiraceae;D_5__Magnetospira;D_6__uncultured alpha proteobacterium	9	0	0	0	0	0
D_0__Bacteria ::: D_0__Bacteria;D_1__Proteobacteria ::: D_0__Bacteria;D_1__Proteobacteria;D_2__Alphaproteobacteria ::: D_0__Bacteria;D_1__Proteobacteria;D_2__Alphaproteobacteria;D_3__Rhodospirillales ::: D_0__Bacteria;D_1__Proteobacteria;D_2__Alphaproteobacteria;D_3__Rhodospirillales;D_4__Magnetospiraceae ::: D_0__Bacteria;D_1__Proteobacteria;D_2__Alphaproteobacteria;D_3__Rhodospirillales;D_4__Magnetospiraceae;D_5__uncultured ::: D_0__Bacteria;D_1__Proteobacteria;D_2__Alphaproteobacteria;D_3__Rhodospirillales;D_4__Magnetospiraceae;D_5__uncultured;D_6__uncultured bacterium	44	0	0	0	0	0
D_0__Bacteria ::: D_0__Bacteria;D_1__Proteobacteria ::: D_0__Bacteria;D_1__Proteobacteria;D_2__Alphaproteobacteria ::: D_0__Bacteria;D_1__Proteobacteria;D_2__Alphaproteobacteria;D_3__Rhodospirillales ::: D_0__Bacteria;D_1__Proteobacteria;D_2__Alphaproteobacteria;D_3__Rhodospirillales;D_4__Magnetospiraceae ::: D_0__Bacteria;D_1__Proteobacteria;D_2__Alphaproteobacteria;D_3__Rhodospirillales;D_4__Magnetospiraceae;D_5__uncultured ::: D_0__Bacteria;D_1__Proteobacteria;D_2__Alphaproteobacteria;D_3__Rhodospirillales;D_4__Magnetospiraceae;D_5__uncultured;D_6__uncultured nuHF2 cluster bacterium HF0130_29D04	42	0	0	0	0	0
D_0__Bacteria ::: D_0__Bacteria;D_1__Proteobacteria ::: D_0__Bacteria;D_1__Proteobacteria;D_2__Alphaproteobacteria ::: D_0__Bacteria;D_1__Proteobacteria;D_2__Alphaproteobacteria;D_3__Rickettsiales ::: D_0__Bacteria;D_1__Proteobacteria;D_2__Alphaproteobacteria;D_3__Rickettsiales;D_4__S25-593 ::: D_0__Bacteria;D_1__Proteobacteria;D_2__Alphaproteobacteria;D_3__Rickettsiales;D_4__S25-593;Ambiguous_taxa ::: D_0__Bacteria;D_1__Proteobacteria;D_2__Alphaproteobacteria;D_3__Rickettsiales;D_4__S25-593;Ambiguous_taxa;Ambiguous_taxa	7	0	0	0	0	0
D_0__Bacteria ::: D_0__Bacteria;D_1__Proteobacteria ::: D_0__Bacteria;D_1__Proteobacteria;D_2__Alphaproteobacteria ::: D_0__Bacteria;D_1__Proteobacteria;D_2__Alphaproteobacteria;D_3__Rickettsiales ::: D_0__Bacteria;D_1__Proteobacteria;D_2__Alphaproteobacteria;D_3__Rickettsiales;D_4__S25-593 ::: D_0__Bacteria;D_1__Proteobacteria;D_2__Alphaproteobacteria;D_3__Rickettsiales;D_4__S25-593;D_5__uncultured bacterium ::: D_0__Bacteria;D_1__Proteobacteria;D_2__Alphaproteobacteria;D_3__Rickettsiales;D_4__S25-593;D_5__uncultured bacterium;D_6__uncultured bacterium	9	0	0	0	0	0
D_0__Bacteria ::: D_0__Bacteria;D_1__Proteobacteria ::: D_0__Bacteria;D_1__Proteobacteria;D_2__Alphaproteobacteria ::: D_0__Bacteria;D_1__Proteobacteria;D_2__Alphaproteobacteria;D_3__SAR11 clade ::: D_0__Bacteria;D_1__Proteobacteria;D_2__Alphaproteobacteria;D_3__SAR11 clade;D_4__Clade I ::: D_0__Bacteria;D_1__Proteobacteria;D_2__Alphaproteobacteria;D_3__SAR11 clade;D_4__Clade I;D_5__Clade Ia ::: D_0__Bacteria;D_1__Proteobacteria;D_2__Alphaproteobacteria;D_3__SAR11 clade;D_4__Clade I;D_5__Clade Ia;Ambiguous_taxa	2705	0	0	0	0	0
D_0__Bacteria ::: D_0__Bacteria;D_1__Proteobacteria ::: D_0__Bacteria;D_1__Proteobacteria;D_2__Alphaproteobacteria ::: D_0__Bacteria;D_1__Proteobacteria;D_2__Alphaproteobacteria;D_3__SAR11 clade ::: D_0__Bacteria;D_1__Proteobacteria;D_2__Alphaproteobacteria;D_3__SAR11 clade;D_4__Clade I ::: D_0__Bacteria;D_1__Proteobacteria;D_2__Alphaproteobacteria;D_3__SAR11 clade;D_4__Clade I;D_5__Clade Ib ::: D_0__Bacteria;D_1__Proteobacteria;D_2__Alphaproteobacteria;D_3__SAR11 clade;D_4__Clade I;D_5__Clade Ib;Ambiguous_taxa	403	0	0	0	0	0
D_0__Bacteria ::: D_0__Bacteria;D_1__Proteobacteria ::: D_0__Bacteria;D_1__Proteobacteria;D_2__Alphaproteobacteria ::: D_0__Bacteria;D_1__Proteobacteria;D_2__Alphaproteobacteria;D_3__SAR11 clade ::: D_0__Bacteria;D_1__Proteobacteria;D_2__Alphaproteobacteria;D_3__SAR11 clade;D_4__Clade I ::: D_0__Bacteria;D_1__Proteobacteria;D_2__Alphaproteobacteria;D_3__SAR11 clade;D_4__Clade I;D_5__Clade Ib ::: D_0__Bacteria;D_1__Proteobacteria;D_2__Alphaproteobacteria;D_3__SAR11 clade;D_4__Clade I;D_5__Clade Ib;D_6__uncultured bacterium	2333	6	0	0	0	0
D_0__Bacteria ::: D_0__Bacteria;D_1__Proteobacteria ::: D_0__Bacteria;D_1__Proteobacteria;D_2__Alphaproteobacteria ::: D_0__Bacteria;D_1__Proteobacteria;D_2__Alphaproteobacteria;D_3__SAR11 clade ::: D_0__Bacteria;D_1__Proteobacteria;D_2__Alphaproteobacteria;D_3__SAR11 clade;D_4__Clade I ::: D_0__Bacteria;D_1__Proteobacteria;D_2__Alphaproteobacteria;D_3__SAR11 clade;D_4__Clade I;D_5__Clade Ib ::: D_0__Bacteria;D_1__Proteobacteria;D_2__Alphaproteobacteria;D_3__SAR11 clade;D_4__Clade I;D_5__Clade Ib;D_6__uncultured marine bacterium	235	0	0	0	0	0
D_0__Bacteria ::: D_0__Bacteria;D_1__Proteobacteria ::: D_0__Bacteria;D_1__Proteobacteria;D_2__Alphaproteobacteria ::: D_0__Bacteria;D_1__Proteobacteria;D_2__Alphaproteobacteria;D_3__SAR11 clade ::: D_0__Bacteria;D_1__Proteobacteria;D_2__Alphaproteobacteria;D_3__SAR11 clade;D_4__Clade I ::: D_0__Bacteria;D_1__Proteobacteria;D_2__Alphaproteobacteria;D_3__SAR11 clade;D_4__Clade I;D_5__Clade Ib ::: D_0__Bacteria;D_1__Proteobacteria;D_2__Alphaproteobacteria;D_3__SAR11 clade;D_4__Clade I;D_5__Clade Ib;D_6__uncultured organism	143	0	0	0	0	0
D_0__Bacteria ::: D_0__Bacteria;D_1__Proteobacteria ::: D_0__Bacteria;D_1__Proteobacteria;D_2__Alphaproteobacteria ::: D_0__Bacteria;D_1__Proteobacteria;D_2__Alphaproteobacteria;D_3__SAR11 clade ::: D_0__Bacteria;D_1__Proteobacteria;D_2__Alphaproteobacteria;D_3__SAR11 clade;D_4__Clade II	930	0	0	0	0	0
D_0__Bacteria ::: D_0__Bacteria;D_1__Proteobacteria ::: D_0__Bacteria;D_1__Proteobacteria;D_2__Alphaproteobacteria ::: D_0__Bacteria;D_1__Proteobacteria;D_2__Alphaproteobacteria;D_3__SAR11 clade ::: D_0__Bacteria;D_1__Proteobacteria;D_2__Alphaproteobacteria;D_3__SAR11 clade;D_4__Clade II ::: D_0__Bacteria;D_1__Proteobacteria;D_2__Alphaproteobacteria;D_3__SAR11 clade;D_4__Clade II;Ambiguous_taxa ::: D_0__Bacteria;D_1__Proteobacteria;D_2__Alphaproteobacteria;D_3__SAR11 clade;D_4__Clade II;Ambiguous_taxa;Ambiguous_taxa	712	0	0	0	0	0
D_0__Bacteria ::: D_0__Bacteria;D_1__Proteobacteria ::: D_0__Bacteria;D_1__Proteobacteria;D_2__Alphaproteobacteria ::: D_0__Bacteria;D_1__Proteobacteria;D_2__Alphaproteobacteria;D_3__SAR11 clade ::: D_0__Bacteria;D_1__Proteobacteria;D_2__Alphaproteobacteria;D_3__SAR11 clade;D_4__Clade II ::: D_0__Bacteria;D_1__Proteobacteria;D_2__Alphaproteobacteria;D_3__SAR11 clade;D_4__Clade II;D_5__uncultured alpha proteobacterium ::: D_0__Bacteria;D_1__Proteobacteria;D_2__Alphaproteobacteria;D_3__SAR11 clade;D_4__Clade II;D_5__uncultured alpha proteobacterium;D_6__uncultured alpha proteobacterium	11	0	0	0	0	0
D_0__Bacteria ::: D_0__Bacteria;D_1__Proteobacteria ::: D_0__Bacteria;D_1__Proteobacteria;D_2__Alphaproteobacteria ::: D_0__Bacteria;D_1__Proteobacteria;D_2__Alphaproteobacteria;D_3__SAR11 clade ::: D_0__Bacteria;D_1__Proteobacteria;D_2__Alphaproteobacteria;D_3__SAR11 clade;D_4__Clade II ::: D_0__Bacteria;D_1__Proteobacteria;D_2__Alphaproteobacteria;D_3__SAR11 clade;D_4__Clade II;D_5__uncultured bacterium ::: D_0__Bacteria;D_1__Proteobacteria;D_2__Alphaproteobacteria;D_3__SAR11 clade;D_4__Clade II;D_5__uncultured bacterium;D_6__uncultured bacterium	1142	0	0	0	0	0
D_0__Bacteria ::: D_0__Bacteria;D_1__Proteobacteria ::: D_0__Bacteria;D_1__Proteobacteria;D_2__Alphaproteobacteria ::: D_0__Bacteria;D_1__Proteobacteria;D_2__Alphaproteobacteria;D_3__SAR11 clade ::: D_0__Bacteria;D_1__Proteobacteria;D_2__Alphaproteobacteria;D_3__SAR11 clade;D_4__Clade II ::: D_0__Bacteria;D_1__Proteobacteria;D_2__Alphaproteobacteria;D_3__SAR11 clade;D_4__Clade II;D_5__uncultured marine bacterium ::: D_0__Bacteria;D_1__Proteobacteria;D_2__Alphaproteobacteria;D_3__SAR11 clade;D_4__Clade II;D_5__uncultured marine bacterium;D_6__uncultured marine bacterium	46	0	0	0	0	0
D_0__Bacteria ::: D_0__Bacteria;D_1__Proteobacteria ::: D_0__Bacteria;D_1__Proteobacteria;D_2__Alphaproteobacteria ::: D_0__Bacteria;D_1__Proteobacteria;D_2__Alphaproteobacteria;D_3__Sneathiellales ::: D_0__Bacteria;D_1__Proteobacteria;D_2__Alphaproteobacteria;D_3__Sneathiellales;D_4__Sneathiellaceae ::: D_0__Bacteria;D_1__Proteobacteria;D_2__Alphaproteobacteria;D_3__Sneathiellales;D_4__Sneathiellaceae;D_5__Sneathiella ::: D_0__Bacteria;D_1__Proteobacteria;D_2__Alphaproteobacteria;D_3__Sneathiellales;D_4__Sneathiellaceae;D_5__Sneathiella;D_6__uncultured bacterium	0	0	0	62	1343	0
D_0__Bacteria ::: D_0__Bacteria;D_1__Proteobacteria ::: D_0__Bacteria;D_1__Proteobacteria;D_2__Alphaproteobacteria ::: D_0__Bacteria;D_1__Proteobacteria;D_2__Alphaproteobacteria;D_3__Sphingomonadales ::: D_0__Bacteria;D_1__Proteobacteria;D_2__Alphaproteobacteria;D_3__Sphingomonadales;D_4__Sphingomonadaceae ::: D_0__Bacteria;D_1__Proteobacteria;D_2__Alphaproteobacteria;D_3__Sphingomonadales;D_4__Sphingomonadaceae;D_5__Altererythrobacter ::: D_0__Bacteria;D_1__Proteobacteria;D_2__Alphaproteobacteria;D_3__Sphingomonadales;D_4__Sphingomonadaceae;D_5__Altererythrobacter;D_6__uncultured bacterium	17	0	0	0	0	0
D_0__Bacteria ::: D_0__Bacteria;D_1__Proteobacteria ::: D_0__Bacteria;D_1__Proteobacteria;D_2__Alphaproteobacteria ::: D_0__Bacteria;D_1__Proteobacteria;D_2__Alphaproteobacteria;D_3__Sphingomonadales ::: D_0__Bacteria;D_1__Proteobacteria;D_2__Alphaproteobacteria;D_3__Sphingomonadales;D_4__Sphingomonadaceae ::: D_0__Bacteria;D_1__Proteobacteria;D_2__Alphaproteobacteria;D_3__Sphingomonadales;D_4__Sphingomonadaceae;D_5__Altererythrobacter ::: D_0__Bacteria;D_1__Proteobacteria;D_2__Alphaproteobacteria;D_3__Sphingomonadales;D_4__Sphingomonadaceae;D_5__Altererythrobacter;D_6__uncultured organism	825	211	0	0	0	0
D_0__Bacteria ::: D_0__Bacteria;D_1__Proteobacteria ::: D_0__Bacteria;D_1__Proteobacteria;D_2__Alphaproteobacteria ::: D_0__Bacteria;D_1__Proteobacteria;D_2__Alphaproteobacteria;D_3__uncultured ::: D_0__Bacteria;D_1__Proteobacteria;D_2__Alphaproteobacteria;D_3__uncultured;D_4__uncultured alpha proteobacterium ::: D_0__Bacteria;D_1__Proteobacteria;D_2__Alphaproteobacteria;D_3__uncultured;D_4__uncultured alpha proteobacterium;D_5__uncultured alpha proteobacterium ::: D_0__Bacteria;D_1__Proteobacteria;D_2__Alphaproteobacteria;D_3__uncultured;D_4__uncultured alpha proteobacterium;D_5__uncultured alpha proteobacterium;D_6__uncultured alpha proteobacterium	42	0	0	0	0	0
D_0__Bacteria ::: D_0__Bacteria;D_1__Proteobacteria ::: D_0__Bacteria;D_1__Proteobacteria;D_2__Alphaproteobacteria ::: D_0__Bacteria;D_1__Proteobacteria;D_2__Alphaproteobacteria;D_3__uncultured ::: D_0__Bacteria;D_1__Proteobacteria;D_2__Alphaproteobacteria;D_3__uncultured;D_4__uncultured bacterium ::: D_0__Bacteria;D_1__Proteobacteria;D_2__Alphaproteobacteria;D_3__uncultured;D_4__uncultured bacterium;D_5__uncultured bacterium ::: D_0__Bacteria;D_1__Proteobacteria;D_2__Alphaproteobacteria;D_3__uncultured;D_4__uncultured bacterium;D_5__uncultured bacterium;D_6__uncultured bacterium	8	0	0	0	0	0
D_0__Bacteria ::: D_0__Bacteria;D_1__Proteobacteria ::: D_0__Bacteria;D_1__Proteobacteria;D_2__Deltaproteobacteria ::: D_0__Bacteria;D_1__Proteobacteria;D_2__Deltaproteobacteria;D_3__Desulfobacterales ::: D_0__Bacteria;D_1__Proteobacteria;D_2__Deltaproteobacteria;D_3__Desulfobacterales;D_4__Desulfobacteraceae ::: D_0__Bacteria;D_1__Proteobacteria;D_2__Deltaproteobacteria;D_3__Desulfobacterales;D_4__Desulfobacteraceae;D_5__Desulfonatronobacter	0	0	0	0	0	10
D_0__Bacteria ::: D_0__Bacteria;D_1__Proteobacteria ::: D_0__Bacteria;D_1__Proteobacteria;D_2__Deltaproteobacteria ::: D_0__Bacteria;D_1__Proteobacteria;D_2__Deltaproteobacteria;D_3__Desulfobacterales ::: D_0__Bacteria;D_1__Proteobacteria;D_2__Deltaproteobacteria;D_3__Desulfobacterales;D_4__Desulfobacteraceae ::: D_0__Bacteria;D_1__Proteobacteria;D_2__Deltaproteobacteria;D_3__Desulfobacterales;D_4__Desulfobacteraceae;D_5__Sva0081 sediment group	0	5	0	0	0	0
D_0__Bacteria ::: D_0__Bacteria;D_1__Proteobacteria ::: D_0__Bacteria;D_1__Proteobacteria;D_2__Deltaproteobacteria ::: D_0__Bacteria;D_1__Proteobacteria;D_2__Deltaproteobacteria;D_3__Desulfobacterales ::: D_0__Bacteria;D_1__Proteobacteria;D_2__Deltaproteobacteria;D_3__Desulfobacterales;D_4__Desulfobulbaceae ::: D_0__Bacteria;D_1__Proteobacteria;D_2__Deltaproteobacteria;D_3__Desulfobacterales;D_4__Desulfobulbaceae;D_5__Desulfocapsa ::: D_0__Bacteria;D_1__Proteobacteria;D_2__Deltaproteobacteria;D_3__Desulfobacterales;D_4__Desulfobulbaceae;D_5__Desulfocapsa;D_6__uncultured bacterium	0	58	0	0	0	34
D_0__Bacteria ::: D_0__Bacteria;D_1__Proteobacteria ::: D_0__Bacteria;D_1__Proteobacteria;D_2__Deltaproteobacteria ::: D_0__Bacteria;D_1__Proteobacteria;D_2__Deltaproteobacteria;D_3__Desulfuromonadales ::: D_0__Bacteria;D_1__Proteobacteria;D_2__Deltaproteobacteria;D_3__Desulfuromonadales;D_4__Geobacteraceae ::: D_0__Bacteria;D_1__Proteobacteria;D_2__Deltaproteobacteria;D_3__Desulfuromonadales;D_4__Geobacteraceae;D_5__Geobacter ::: D_0__Bacteria;D_1__Proteobacteria;D_2__Deltaproteobacteria;D_3__Desulfuromonadales;D_4__Geobacteraceae;D_5__Geobacter;D_6__uncultured bacterium	0	73	0	0	0	0
D_0__Bacteria ::: D_0__Bacteria;D_1__Proteobacteria ::: D_0__Bacteria;D_1__Proteobacteria;D_2__Deltaproteobacteria ::: D_0__Bacteria;D_1__Proteobacteria;D_2__Deltaproteobacteria;D_3__Myxococcales ::: D_0__Bacteria;D_1__Proteobacteria;D_2__Deltaproteobacteria;D_3__Myxococcales;D_4__Archangiaceae ::: D_0__Bacteria;D_1__Proteobacteria;D_2__Deltaproteobacteria;D_3__Myxococcales;D_4__Archangiaceae;D_5__Anaeromyxobacter ::: D_0__Bacteria;D_1__Proteobacteria;D_2__Deltaproteobacteria;D_3__Myxococcales;D_4__Archangiaceae;D_5__Anaeromyxobacter;D_6__uncultured delta proteobacterium	0	13	0	0	0	0
D_0__Bacteria ::: D_0__Bacteria;D_1__Proteobacteria ::: D_0__Bacteria;D_1__Proteobacteria;D_2__Deltaproteobacteria ::: D_0__Bacteria;D_1__Proteobacteria;D_2__Deltaproteobacteria;D_3__RCP2-54 ::: D_0__Bacteria;D_1__Proteobacteria;D_2__Deltaproteobacteria;D_3__RCP2-54;D_4__uncultured bacterium ::: D_0__Bacteria;D_1__Proteobacteria;D_2__Deltaproteobacteria;D_3__RCP2-54;D_4__uncultured bacterium;D_5__uncultured bacterium ::: D_0__Bacteria;D_1__Proteobacteria;D_2__Deltaproteobacteria;D_3__RCP2-54;D_4__uncultured bacterium;D_5__uncultured bacterium;D_6__uncultured bacterium	0	0	0	0	0	34
D_0__Bacteria ::: D_0__Bacteria;D_1__Proteobacteria ::: D_0__Bacteria;D_1__Proteobacteria;D_2__Deltaproteobacteria ::: D_0__Bacteria;D_1__Proteobacteria;D_2__Deltaproteobacteria;D_3__Syntrophobacterales ::: D_0__Bacteria;D_1__Proteobacteria;D_2__Deltaproteobacteria;D_3__Syntrophobacterales;D_4__Syntrophaceae ::: D_0__Bacteria;D_1__Proteobacteria;D_2__Deltaproteobacteria;D_3__Syntrophobacterales;D_4__Syntrophaceae;D_5__Desulfobacca ::: D_0__Bacteria;D_1__Proteobacteria;D_2__Deltaproteobacteria;D_3__Syntrophobacterales;D_4__Syntrophaceae;D_5__Desulfobacca;D_6__uncultured bacterium	4	0	0	0	0	0
D_0__Bacteria ::: D_0__Bacteria;D_1__Proteobacteria ::: D_0__Bacteria;D_1__Proteobacteria;D_2__Gammaproteobacteria	0	0	0	0	1	0
D_0__Bacteria ::: D_0__Bacteria;D_1__Proteobacteria ::: D_0__Bacteria;D_1__Proteobacteria;D_2__Gammaproteobacteria ::: D_0__Bacteria;D_1__Proteobacteria;D_2__Gammaproteobacteria;D_3__Alteromonadales ::: D_0__Bacteria;D_1__Proteobacteria;D_2__Gammaproteobacteria;D_3__Alteromonadales;D_4__Alteromonadaceae ::: D_0__Bacteria;D_1__Proteobacteria;D_2__Gammaproteobacteria;D_3__Alteromonadales;D_4__Alteromonadaceae;D_5__Alteromonas ::: D_0__Bacteria;D_1__Proteobacteria;D_2__Gammaproteobacteria;D_3__Alteromonadales;D_4__Alteromonadaceae;D_5__Alteromonas;Ambiguous_taxa	171	0	292	525	0	0
D_0__Bacteria ::: D_0__Bacteria;D_1__Proteobacteria ::: D_0__Bacteria;D_1__Proteobacteria;D_2__Gammaproteobacteria ::: D_0__Bacteria;D_1__Proteobacteria;D_2__Gammaproteobacteria;D_3__Alteromonadales ::: D_0__Bacteria;D_1__Proteobacteria;D_2__Gammaproteobacteria;D_3__Alteromonadales;D_4__Alteromonadaceae ::: D_0__Bacteria;D_1__Proteobacteria;D_2__Gammaproteobacteria;D_3__Alteromonadales;D_4__Alteromonadaceae;D_5__Alteromonas ::: D_0__Bacteria;D_1__Proteobacteria;D_2__Gammaproteobacteria;D_3__Alteromonadales;D_4__Alteromonadaceae;D_5__Alteromonas;D_6__uncultured bacterium	0	34	0	0	0	0
D_0__Bacteria ::: D_0__Bacteria;D_1__Proteobacteria ::: D_0__Bacteria;D_1__Proteobacteria;D_2__Gammaproteobacteria ::: D_0__Bacteria;D_1__Proteobacteria;D_2__Gammaproteobacteria;D_3__Alteromonadales ::: D_0__Bacteria;D_1__Proteobacteria;D_2__Gammaproteobacteria;D_3__Alteromonadales;D_4__Colwelliaceae ::: D_0__Bacteria;D_1__Proteobacteria;D_2__Gammaproteobacteria;D_3__Alteromonadales;D_4__Colwelliaceae;D_5__Colwellia	0	0	0	92	0	0
D_0__Bacteria ::: D_0__Bacteria;D_1__Proteobacteria ::: D_0__Bacteria;D_1__Proteobacteria;D_2__Gammaproteobacteria ::: D_0__Bacteria;D_1__Proteobacteria;D_2__Gammaproteobacteria;D_3__Alteromonadales ::: D_0__Bacteria;D_1__Proteobacteria;D_2__Gammaproteobacteria;D_3__Alteromonadales;D_4__Colwelliaceae ::: D_0__Bacteria;D_1__Proteobacteria;D_2__Gammaproteobacteria;D_3__Alteromonadales;D_4__Colwelliaceae;D_5__Colwellia ::: D_0__Bacteria;D_1__Proteobacteria;D_2__Gammaproteobacteria;D_3__Alteromonadales;D_4__Colwelliaceae;D_5__Colwellia;D_6__uncultured bacterium	45	0	243	950	8	0
D_0__Bacteria ::: D_0__Bacteria;D_1__Proteobacteria ::: D_0__Bacteria;D_1__Proteobacteria;D_2__Gammaproteobacteria ::: D_0__Bacteria;D_1__Proteobacteria;D_2__Gammaproteobacteria;D_3__Alteromonadales ::: D_0__Bacteria;D_1__Proteobacteria;D_2__Gammaproteobacteria;D_3__Alteromonadales;D_4__Colwelliaceae ::: D_0__Bacteria;D_1__Proteobacteria;D_2__Gammaproteobacteria;D_3__Alteromonadales;D_4__Colwelliaceae;D_5__Colwellia ::: D_0__Bacteria;D_1__Proteobacteria;D_2__Gammaproteobacteria;D_3__Alteromonadales;D_4__Colwelliaceae;D_5__Colwellia;D_6__uncultured marine bacterium	0	0	39	832	0	0
D_0__Bacteria ::: D_0__Bacteria;D_1__Proteobacteria ::: D_0__Bacteria;D_1__Proteobacteria;D_2__Gammaproteobacteria ::: D_0__Bacteria;D_1__Proteobacteria;D_2__Gammaproteobacteria;D_3__Alteromonadales ::: D_0__Bacteria;D_1__Proteobacteria;D_2__Gammaproteobacteria;D_3__Alteromonadales;D_4__Colwelliaceae ::: D_0__Bacteria;D_1__Proteobacteria;D_2__Gammaproteobacteria;D_3__Alteromonadales;D_4__Colwelliaceae;D_5__uncultured ::: D_0__Bacteria;D_1__Proteobacteria;D_2__Gammaproteobacteria;D_3__Alteromonadales;D_4__Colwelliaceae;D_5__uncultured;D_6__uncultured bacterium	448	755	0	125	0	0
D_0__Bacteria ::: D_0__Bacteria;D_1__Proteobacteria ::: D_0__Bacteria;D_1__Proteobacteria;D_2__Gammaproteobacteria ::: D_0__Bacteria;D_1__Proteobacteria;D_2__Gammaproteobacteria;D_3__Alteromonadales ::: D_0__Bacteria;D_1__Proteobacteria;D_2__Gammaproteobacteria;D_3__Alteromonadales;D_4__Marinobacteraceae ::: D_0__Bacteria;D_1__Proteobacteria;D_2__Gammaproteobacteria;D_3__Alteromonadales;D_4__Marinobacteraceae;D_5__Marinobacter	0	0	0	0	2	0
D_0__Bacteria ::: D_0__Bacteria;D_1__Proteobacteria ::: D_0__Bacteria;D_1__Proteobacteria;D_2__Gammaproteobacteria ::: D_0__Bacteria;D_1__Proteobacteria;D_2__Gammaproteobacteria;D_3__Alteromonadales ::: D_0__Bacteria;D_1__Proteobacteria;D_2__Gammaproteobacteria;D_3__Alteromonadales;D_4__Marinobacteraceae ::: D_0__Bacteria;D_1__Proteobacteria;D_2__Gammaproteobacteria;D_3__Alteromonadales;D_4__Marinobacteraceae;D_5__Marinobacter ::: D_0__Bacteria;D_1__Proteobacteria;D_2__Gammaproteobacteria;D_3__Alteromonadales;D_4__Marinobacteraceae;D_5__Marinobacter;Ambiguous_taxa	0	0	2629	1403	5011	155
D_0__Bacteria ::: D_0__Bacteria;D_1__Proteobacteria ::: D_0__Bacteria;D_1__Proteobacteria;D_2__Gammaproteobacteria ::: D_0__Bacteria;D_1__Proteobacteria;D_2__Gammaproteobacteria;D_3__Alteromonadales ::: D_0__Bacteria;D_1__Proteobacteria;D_2__Gammaproteobacteria;D_3__Alteromonadales;D_4__Marinobacteraceae ::: D_0__Bacteria;D_1__Proteobacteria;D_2__Gammaproteobacteria;D_3__Alteromonadales;D_4__Marinobacteraceae;D_5__Marinobacter ::: D_0__Bacteria;D_1__Proteobacteria;D_2__Gammaproteobacteria;D_3__Alteromonadales;D_4__Marinobacteraceae;D_5__Marinobacter;D_6__Marinobacter litoralis	0	0	0	34	43	0
D_0__Bacteria ::: D_0__Bacteria;D_1__Proteobacteria ::: D_0__Bacteria;D_1__Proteobacteria;D_2__Gammaproteobacteria ::: D_0__Bacteria;D_1__Proteobacteria;D_2__Gammaproteobacteria;D_3__Alteromonadales ::: D_0__Bacteria;D_1__Proteobacteria;D_2__Gammaproteobacteria;D_3__Alteromonadales;D_4__Marinobacteraceae ::: D_0__Bacteria;D_1__Proteobacteria;D_2__Gammaproteobacteria;D_3__Alteromonadales;D_4__Marinobacteraceae;D_5__Marinobacter ::: D_0__Bacteria;D_1__Proteobacteria;D_2__Gammaproteobacteria;D_3__Alteromonadales;D_4__Marinobacteraceae;D_5__Marinobacter;D_6__uncultured bacterium	0	0	1460	2481	1055	0
D_0__Bacteria ::: D_0__Bacteria;D_1__Proteobacteria ::: D_0__Bacteria;D_1__Proteobacteria;D_2__Gammaproteobacteria ::: D_0__Bacteria;D_1__Proteobacteria;D_2__Gammaproteobacteria;D_3__Alteromonadales ::: D_0__Bacteria;D_1__Proteobacteria;D_2__Gammaproteobacteria;D_3__Alteromonadales;D_4__Moritellaceae ::: D_0__Bacteria;D_1__Proteobacteria;D_2__Gammaproteobacteria;D_3__Alteromonadales;D_4__Moritellaceae;D_5__Moritella ::: D_0__Bacteria;D_1__Proteobacteria;D_2__Gammaproteobacteria;D_3__Alteromonadales;D_4__Moritellaceae;D_5__Moritella;Ambiguous_taxa	0	0	152	558	148	0
D_0__Bacteria ::: D_0__Bacteria;D_1__Proteobacteria ::: D_0__Bacteria;D_1__Proteobacteria;D_2__Gammaproteobacteria ::: D_0__Bacteria;D_1__Proteobacteria;D_2__Gammaproteobacteria;D_3__Alteromonadales ::: D_0__Bacteria;D_1__Proteobacteria;D_2__Gammaproteobacteria;D_3__Alteromonadales;D_4__Pseudoalteromonadaceae ::: D_0__Bacteria;D_1__Proteobacteria;D_2__Gammaproteobacteria;D_3__Alteromonadales;D_4__Pseudoalteromonadaceae;D_5__Pseudoalteromonas	0	0	38	0	0	0
D_0__Bacteria ::: D_0__Bacteria;D_1__Proteobacteria ::: D_0__Bacteria;D_1__Proteobacteria;D_2__Gammaproteobacteria ::: D_0__Bacteria;D_1__Proteobacteria;D_2__Gammaproteobacteria;D_3__Alteromonadales ::: D_0__Bacteria;D_1__Proteobacteria;D_2__Gammaproteobacteria;D_3__Alteromonadales;D_4__Pseudoalteromonadaceae ::: D_0__Bacteria;D_1__Proteobacteria;D_2__Gammaproteobacteria;D_3__Alteromonadales;D_4__Pseudoalteromonadaceae;D_5__Pseudoalteromonas ::: D_0__Bacteria;D_1__Proteobacteria;D_2__Gammaproteobacteria;D_3__Alteromonadales;D_4__Pseudoalteromonadaceae;D_5__Pseudoalteromonas;Ambiguous_taxa	284	321	322	85	2752	70
D_0__Bacteria ::: D_0__Bacteria;D_1__Proteobacteria ::: D_0__Bacteria;D_1__Proteobacteria;D_2__Gammaproteobacteria ::: D_0__Bacteria;D_1__Proteobacteria;D_2__Gammaproteobacteria;D_3__Alteromonadales ::: D_0__Bacteria;D_1__Proteobacteria;D_2__Gammaproteobacteria;D_3__Alteromonadales;D_4__Pseudoalteromonadaceae ::: D_0__Bacteria;D_1__Proteobacteria;D_2__Gammaproteobacteria;D_3__Alteromonadales;D_4__Pseudoalteromonadaceae;D_5__Pseudoalteromonas ::: D_0__Bacteria;D_1__Proteobacteria;D_2__Gammaproteobacteria;D_3__Alteromonadales;D_4__Pseudoalteromonadaceae;D_5__Pseudoalteromonas;D_6__Alteromonas sp. O-TC11A	0	0	487	280	0	0
D_0__Bacteria ::: D_0__Bacteria;D_1__Proteobacteria ::: D_0__Bacteria;D_1__Proteobacteria;D_2__Gammaproteobacteria ::: D_0__Bacteria;D_1__Proteobacteria;D_2__Gammaproteobacteria;D_3__Alteromonadales ::: D_0__Bacteria;D_1__Proteobacteria;D_2__Gammaproteobacteria;D_3__Alteromonadales;D_4__Pseudoalteromonadaceae ::: D_0__Bacteria;D_1__Proteobacteria;D_2__Gammaproteobacteria;D_3__Alteromonadales;D_4__Pseudoalteromonadaceae;D_5__Pseudoalteromonas ::: D_0__Bacteria;D_1__Proteobacteria;D_2__Gammaproteobacteria;D_3__Alteromonadales;D_4__Pseudoalteromonadaceae;D_5__Pseudoalteromonas;D_6__Pseudoalteromonas lipolytica	0	0	0	0	118	0
D_0__Bacteria ::: D_0__Bacteria;D_1__Proteobacteria ::: D_0__Bacteria;D_1__Proteobacteria;D_2__Gammaproteobacteria ::: D_0__Bacteria;D_1__Proteobacteria;D_2__Gammaproteobacteria;D_3__Alteromonadales ::: D_0__Bacteria;D_1__Proteobacteria;D_2__Gammaproteobacteria;D_3__Alteromonadales;D_4__Pseudoalteromonadaceae ::: D_0__Bacteria;D_1__Proteobacteria;D_2__Gammaproteobacteria;D_3__Alteromonadales;D_4__Pseudoalteromonadaceae;D_5__Pseudoalteromonas ::: D_0__Bacteria;D_1__Proteobacteria;D_2__Gammaproteobacteria;D_3__Alteromonadales;D_4__Pseudoalteromonadaceae;D_5__Pseudoalteromonas;D_6__Pseudoalteromonas sp.	59	0	0	0	157	0
D_0__Bacteria ::: D_0__Bacteria;D_1__Proteobacteria ::: D_0__Bacteria;D_1__Proteobacteria;D_2__Gammaproteobacteria ::: D_0__Bacteria;D_1__Proteobacteria;D_2__Gammaproteobacteria;D_3__Alteromonadales ::: D_0__Bacteria;D_1__Proteobacteria;D_2__Gammaproteobacteria;D_3__Alteromonadales;D_4__Pseudoalteromonadaceae ::: D_0__Bacteria;D_1__Proteobacteria;D_2__Gammaproteobacteria;D_3__Alteromonadales;D_4__Pseudoalteromonadaceae;D_5__Pseudoalteromonas ::: D_0__Bacteria;D_1__Proteobacteria;D_2__Gammaproteobacteria;D_3__Alteromonadales;D_4__Pseudoalteromonadaceae;D_5__Pseudoalteromonas;D_6__Pseudoalteromonas sp. E9	0	0	0	0	171	0
D_0__Bacteria ::: D_0__Bacteria;D_1__Proteobacteria ::: D_0__Bacteria;D_1__Proteobacteria;D_2__Gammaproteobacteria ::: D_0__Bacteria;D_1__Proteobacteria;D_2__Gammaproteobacteria;D_3__Alteromonadales ::: D_0__Bacteria;D_1__Proteobacteria;D_2__Gammaproteobacteria;D_3__Alteromonadales;D_4__Pseudoalteromonadaceae ::: D_0__Bacteria;D_1__Proteobacteria;D_2__Gammaproteobacteria;D_3__Alteromonadales;D_4__Pseudoalteromonadaceae;D_5__Pseudoalteromonas ::: D_0__Bacteria;D_1__Proteobacteria;D_2__Gammaproteobacteria;D_3__Alteromonadales;D_4__Pseudoalteromonadaceae;D_5__Pseudoalteromonas;D_6__Pseudoalteromonas sp. O3	0	0	33	0	0	0
D_0__Bacteria ::: D_0__Bacteria;D_1__Proteobacteria ::: D_0__Bacteria;D_1__Proteobacteria;D_2__Gammaproteobacteria ::: D_0__Bacteria;D_1__Proteobacteria;D_2__Gammaproteobacteria;D_3__Alteromonadales ::: D_0__Bacteria;D_1__Proteobacteria;D_2__Gammaproteobacteria;D_3__Alteromonadales;D_4__Shewanellaceae ::: D_0__Bacteria;D_1__Proteobacteria;D_2__Gammaproteobacteria;D_3__Alteromonadales;D_4__Shewanellaceae;D_5__Psychrobium ::: D_0__Bacteria;D_1__Proteobacteria;D_2__Gammaproteobacteria;D_3__Alteromonadales;D_4__Shewanellaceae;D_5__Psychrobium;D_6__uncultured bacterium	0	0	0	210	0	0
D_0__Bacteria ::: D_0__Bacteria;D_1__Proteobacteria ::: D_0__Bacteria;D_1__Proteobacteria;D_2__Gammaproteobacteria ::: D_0__Bacteria;D_1__Proteobacteria;D_2__Gammaproteobacteria;D_3__Betaproteobacteriales ::: D_0__Bacteria;D_1__Proteobacteria;D_2__Gammaproteobacteria;D_3__Betaproteobacteriales;D_4__Burkholderiaceae ::: D_0__Bacteria;D_1__Proteobacteria;D_2__Gammaproteobacteria;D_3__Betaproteobacteriales;D_4__Burkholderiaceae;D_5__Achromobacter ::: D_0__Bacteria;D_1__Proteobacteria;D_2__Gammaproteobacteria;D_3__Betaproteobacteriales;D_4__Burkholderiaceae;D_5__Achromobacter;Ambiguous_taxa	0	72	0	0	0	37
D_0__Bacteria ::: D_0__Bacteria;D_1__Proteobacteria ::: D_0__Bacteria;D_1__Proteobacteria;D_2__Gammaproteobacteria ::: D_0__Bacteria;D_1__Proteobacteria;D_2__Gammaproteobacteria;D_3__Betaproteobacteriales ::: D_0__Bacteria;D_1__Proteobacteria;D_2__Gammaproteobacteria;D_3__Betaproteobacteriales;D_4__Burkholderiaceae ::: D_0__Bacteria;D_1__Proteobacteria;D_2__Gammaproteobacteria;D_3__Betaproteobacteriales;D_4__Burkholderiaceae;D_5__Bordetella ::: D_0__Bacteria;D_1__Proteobacteria;D_2__Gammaproteobacteria;D_3__Betaproteobacteriales;D_4__Burkholderiaceae;D_5__Bordetella;D_6__uncultured bacterium	0	36	0	0	0	0
D_0__Bacteria ::: D_0__Bacteria;D_1__Proteobacteria ::: D_0__Bacteria;D_1__Proteobacteria;D_2__Gammaproteobacteria ::: D_0__Bacteria;D_1__Proteobacteria;D_2__Gammaproteobacteria;D_3__Betaproteobacteriales ::: D_0__Bacteria;D_1__Proteobacteria;D_2__Gammaproteobacteria;D_3__Betaproteobacteriales;D_4__Burkholderiaceae ::: D_0__Bacteria;D_1__Proteobacteria;D_2__Gammaproteobacteria;D_3__Betaproteobacteriales;D_4__Burkholderiaceae;D_5__Janthinobacterium ::: D_0__Bacteria;D_1__Proteobacteria;D_2__Gammaproteobacteria;D_3__Betaproteobacteriales;D_4__Burkholderiaceae;D_5__Janthinobacterium;D_6__uncultured bacterium	0	0	0	289	0	0
D_0__Bacteria ::: D_0__Bacteria;D_1__Proteobacteria ::: D_0__Bacteria;D_1__Proteobacteria;D_2__Gammaproteobacteria ::: D_0__Bacteria;D_1__Proteobacteria;D_2__Gammaproteobacteria;D_3__Betaproteobacteriales ::: D_0__Bacteria;D_1__Proteobacteria;D_2__Gammaproteobacteria;D_3__Betaproteobacteriales;D_4__Burkholderiaceae ::: D_0__Bacteria;D_1__Proteobacteria;D_2__Gammaproteobacteria;D_3__Betaproteobacteriales;D_4__Burkholderiaceae;D_5__Noviherbaspirillum ::: D_0__Bacteria;D_1__Proteobacteria;D_2__Gammaproteobacteria;D_3__Betaproteobacteriales;D_4__Burkholderiaceae;D_5__Noviherbaspirillum;D_6__uncultured bacterium	0	155	0	0	0	75
D_0__Bacteria ::: D_0__Bacteria;D_1__Proteobacteria ::: D_0__Bacteria;D_1__Proteobacteria;D_2__Gammaproteobacteria ::: D_0__Bacteria;D_1__Proteobacteria;D_2__Gammaproteobacteria;D_3__Betaproteobacteriales ::: D_0__Bacteria;D_1__Proteobacteria;D_2__Gammaproteobacteria;D_3__Betaproteobacteriales;D_4__Burkholderiaceae ::: D_0__Bacteria;D_1__Proteobacteria;D_2__Gammaproteobacteria;D_3__Betaproteobacteriales;D_4__Burkholderiaceae;D_5__Variovorax ::: D_0__Bacteria;D_1__Proteobacteria;D_2__Gammaproteobacteria;D_3__Betaproteobacteriales;D_4__Burkholderiaceae;D_5__Variovorax;Ambiguous_taxa	0	68	0	0	0	0
D_0__Bacteria ::: D_0__Bacteria;D_1__Proteobacteria ::: D_0__Bacteria;D_1__Proteobacteria;D_2__Gammaproteobacteria ::: D_0__Bacteria;D_1__Proteobacteria;D_2__Gammaproteobacteria;D_3__Betaproteobacteriales ::: D_0__Bacteria;D_1__Proteobacteria;D_2__Gammaproteobacteria;D_3__Betaproteobacteriales;D_4__Burkholderiaceae ::: D_0__Bacteria;D_1__Proteobacteria;D_2__Gammaproteobacteria;D_3__Betaproteobacteriales;D_4__Burkholderiaceae;D_5__uncultured ::: D_0__Bacteria;D_1__Proteobacteria;D_2__Gammaproteobacteria;D_3__Betaproteobacteriales;D_4__Burkholderiaceae;D_5__uncultured;D_6__uncultured bacterium	25	0	0	0	0	0
D_0__Bacteria ::: D_0__Bacteria;D_1__Proteobacteria ::: D_0__Bacteria;D_1__Proteobacteria;D_2__Gammaproteobacteria ::: D_0__Bacteria;D_1__Proteobacteria;D_2__Gammaproteobacteria;D_3__Betaproteobacteriales ::: D_0__Bacteria;D_1__Proteobacteria;D_2__Gammaproteobacteria;D_3__Betaproteobacteriales;D_4__Methylophilaceae ::: D_0__Bacteria;D_1__Proteobacteria;D_2__Gammaproteobacteria;D_3__Betaproteobacteriales;D_4__Methylophilaceae;D_5__Methylotenera ::: D_0__Bacteria;D_1__Proteobacteria;D_2__Gammaproteobacteria;D_3__Betaproteobacteriales;D_4__Methylophilaceae;D_5__Methylotenera;D_6__uncultured bacterium	0	0	14	11	0	0
D_0__Bacteria ::: D_0__Bacteria;D_1__Proteobacteria ::: D_0__Bacteria;D_1__Proteobacteria;D_2__Gammaproteobacteria ::: D_0__Bacteria;D_1__Proteobacteria;D_2__Gammaproteobacteria;D_3__Betaproteobacteriales ::: D_0__Bacteria;D_1__Proteobacteria;D_2__Gammaproteobacteria;D_3__Betaproteobacteriales;D_4__TRA3-20 ::: D_0__Bacteria;D_1__Proteobacteria;D_2__Gammaproteobacteria;D_3__Betaproteobacteriales;D_4__TRA3-20;Ambiguous_taxa ::: D_0__Bacteria;D_1__Proteobacteria;D_2__Gammaproteobacteria;D_3__Betaproteobacteriales;D_4__TRA3-20;Ambiguous_taxa;Ambiguous_taxa	0	0	0	0	0	15
D_0__Bacteria ::: D_0__Bacteria;D_1__Proteobacteria ::: D_0__Bacteria;D_1__Proteobacteria;D_2__Gammaproteobacteria ::: D_0__Bacteria;D_1__Proteobacteria;D_2__Gammaproteobacteria;D_3__Betaproteobacteriales ::: D_0__Bacteria;D_1__Proteobacteria;D_2__Gammaproteobacteria;D_3__Betaproteobacteriales;D_4__TRA3-20 ::: D_0__Bacteria;D_1__Proteobacteria;D_2__Gammaproteobacteria;D_3__Betaproteobacteriales;D_4__TRA3-20;D_5__uncultured bacterium ::: D_0__Bacteria;D_1__Proteobacteria;D_2__Gammaproteobacteria;D_3__Betaproteobacteriales;D_4__TRA3-20;D_5__uncultured bacterium;D_6__uncultured bacterium	0	6	0	0	0	0
D_0__Bacteria ::: D_0__Bacteria;D_1__Proteobacteria ::: D_0__Bacteria;D_1__Proteobacteria;D_2__Gammaproteobacteria ::: D_0__Bacteria;D_1__Proteobacteria;D_2__Gammaproteobacteria;D_3__Cellvibrionales ::: D_0__Bacteria;D_1__Proteobacteria;D_2__Gammaproteobacteria;D_3__Cellvibrionales;D_4__Porticoccaceae ::: D_0__Bacteria;D_1__Proteobacteria;D_2__Gammaproteobacteria;D_3__Cellvibrionales;D_4__Porticoccaceae;D_5__Porticoccus ::: D_0__Bacteria;D_1__Proteobacteria;D_2__Gammaproteobacteria;D_3__Cellvibrionales;D_4__Porticoccaceae;D_5__Porticoccus;D_6__uncultured bacterium	0	0	526	36	484	0
D_0__Bacteria ::: D_0__Bacteria;D_1__Proteobacteria ::: D_0__Bacteria;D_1__Proteobacteria;D_2__Gammaproteobacteria ::: D_0__Bacteria;D_1__Proteobacteria;D_2__Gammaproteobacteria;D_3__Enterobacteriales ::: D_0__Bacteria;D_1__Proteobacteria;D_2__Gammaproteobacteria;D_3__Enterobacteriales;D_4__Enterobacteriaceae ::: D_0__Bacteria;D_1__Proteobacteria;D_2__Gammaproteobacteria;D_3__Enterobacteriales;D_4__Enterobacteriaceae;Ambiguous_taxa ::: D_0__Bacteria;D_1__Proteobacteria;D_2__Gammaproteobacteria;D_3__Enterobacteriales;D_4__Enterobacteriaceae;Ambiguous_taxa;Ambiguous_taxa	0	43	0	0	0	0
D_0__Bacteria ::: D_0__Bacteria;D_1__Proteobacteria ::: D_0__Bacteria;D_1__Proteobacteria;D_2__Gammaproteobacteria ::: D_0__Bacteria;D_1__Proteobacteria;D_2__Gammaproteobacteria;D_3__Enterobacteriales ::: D_0__Bacteria;D_1__Proteobacteria;D_2__Gammaproteobacteria;D_3__Enterobacteriales;D_4__Enterobacteriaceae ::: D_0__Bacteria;D_1__Proteobacteria;D_2__Gammaproteobacteria;D_3__Enterobacteriales;D_4__Enterobacteriaceae;D_5__Enterobacter ::: D_0__Bacteria;D_1__Proteobacteria;D_2__Gammaproteobacteria;D_3__Enterobacteriales;D_4__Enterobacteriaceae;D_5__Enterobacter;Ambiguous_taxa	0	0	0	0	0	90
D_0__Bacteria ::: D_0__Bacteria;D_1__Proteobacteria ::: D_0__Bacteria;D_1__Proteobacteria;D_2__Gammaproteobacteria ::: D_0__Bacteria;D_1__Proteobacteria;D_2__Gammaproteobacteria;D_3__Gammaproteobacteria Incertae Sedis ::: D_0__Bacteria;D_1__Proteobacteria;D_2__Gammaproteobacteria;D_3__Gammaproteobacteria Incertae Sedis;D_4__Unknown Family ::: D_0__Bacteria;D_1__Proteobacteria;D_2__Gammaproteobacteria;D_3__Gammaproteobacteria Incertae Sedis;D_4__Unknown Family;D_5__Acidibacter ::: D_0__Bacteria;D_1__Proteobacteria;D_2__Gammaproteobacteria;D_3__Gammaproteobacteria Incertae Sedis;D_4__Unknown Family;D_5__Acidibacter;Ambiguous_taxa	0	33	0	0	0	0
D_0__Bacteria ::: D_0__Bacteria;D_1__Proteobacteria ::: D_0__Bacteria;D_1__Proteobacteria;D_2__Gammaproteobacteria ::: D_0__Bacteria;D_1__Proteobacteria;D_2__Gammaproteobacteria;D_3__HOC36 ::: D_0__Bacteria;D_1__Proteobacteria;D_2__Gammaproteobacteria;D_3__HOC36;Ambiguous_taxa ::: D_0__Bacteria;D_1__Proteobacteria;D_2__Gammaproteobacteria;D_3__HOC36;Ambiguous_taxa;Ambiguous_taxa ::: D_0__Bacteria;D_1__Proteobacteria;D_2__Gammaproteobacteria;D_3__HOC36;Ambiguous_taxa;Ambiguous_taxa;Ambiguous_taxa	67	0	0	0	0	0
D_0__Bacteria ::: D_0__Bacteria;D_1__Proteobacteria ::: D_0__Bacteria;D_1__Proteobacteria;D_2__Gammaproteobacteria ::: D_0__Bacteria;D_1__Proteobacteria;D_2__Gammaproteobacteria;D_3__HOC36 ::: D_0__Bacteria;D_1__Proteobacteria;D_2__Gammaproteobacteria;D_3__HOC36;D_4__uncultured bacterium ::: D_0__Bacteria;D_1__Proteobacteria;D_2__Gammaproteobacteria;D_3__HOC36;D_4__uncultured bacterium;D_5__uncultured bacterium ::: D_0__Bacteria;D_1__Proteobacteria;D_2__Gammaproteobacteria;D_3__HOC36;D_4__uncultured bacterium;D_5__uncultured bacterium;D_6__uncultured bacterium	0	0	6	0	0	0
D_0__Bacteria ::: D_0__Bacteria;D_1__Proteobacteria ::: D_0__Bacteria;D_1__Proteobacteria;D_2__Gammaproteobacteria ::: D_0__Bacteria;D_1__Proteobacteria;D_2__Gammaproteobacteria;D_3__Nitrosococcales ::: D_0__Bacteria;D_1__Proteobacteria;D_2__Gammaproteobacteria;D_3__Nitrosococcales;D_4__Methylophagaceae ::: D_0__Bacteria;D_1__Proteobacteria;D_2__Gammaproteobacteria;D_3__Nitrosococcales;D_4__Methylophagaceae;D_5__Marine Methylotrophic Group 3	0	0	146	0	0	0
D_0__Bacteria ::: D_0__Bacteria;D_1__Proteobacteria ::: D_0__Bacteria;D_1__Proteobacteria;D_2__Gammaproteobacteria ::: D_0__Bacteria;D_1__Proteobacteria;D_2__Gammaproteobacteria;D_3__Nitrosococcales ::: D_0__Bacteria;D_1__Proteobacteria;D_2__Gammaproteobacteria;D_3__Nitrosococcales;D_4__Methylophagaceae ::: D_0__Bacteria;D_1__Proteobacteria;D_2__Gammaproteobacteria;D_3__Nitrosococcales;D_4__Methylophagaceae;D_5__Marine Methylotrophic Group 3 ::: D_0__Bacteria;D_1__Proteobacteria;D_2__Gammaproteobacteria;D_3__Nitrosococcales;D_4__Methylophagaceae;D_5__Marine Methylotrophic Group 3;D_6__uncultured bacterium	0	0	1197	388	29	0
D_0__Bacteria ::: D_0__Bacteria;D_1__Proteobacteria ::: D_0__Bacteria;D_1__Proteobacteria;D_2__Gammaproteobacteria ::: D_0__Bacteria;D_1__Proteobacteria;D_2__Gammaproteobacteria;D_3__Nitrosococcales ::: D_0__Bacteria;D_1__Proteobacteria;D_2__Gammaproteobacteria;D_3__Nitrosococcales;D_4__Methylophagaceae ::: D_0__Bacteria;D_1__Proteobacteria;D_2__Gammaproteobacteria;D_3__Nitrosococcales;D_4__Methylophagaceae;D_5__Methylophaga ::: D_0__Bacteria;D_1__Proteobacteria;D_2__Gammaproteobacteria;D_3__Nitrosococcales;D_4__Methylophagaceae;D_5__Methylophaga;D_6__uncultured Methylophaga sp.	1568	198	60	30	214	8
D_0__Bacteria ::: D_0__Bacteria;D_1__Proteobacteria ::: D_0__Bacteria;D_1__Proteobacteria;D_2__Gammaproteobacteria ::: D_0__Bacteria;D_1__Proteobacteria;D_2__Gammaproteobacteria;D_3__OM182 clade ::: D_0__Bacteria;D_1__Proteobacteria;D_2__Gammaproteobacteria;D_3__OM182 clade;D_4__uncultured bacterium ::: D_0__Bacteria;D_1__Proteobacteria;D_2__Gammaproteobacteria;D_3__OM182 clade;D_4__uncultured bacterium;D_5__uncultured bacterium ::: D_0__Bacteria;D_1__Proteobacteria;D_2__Gammaproteobacteria;D_3__OM182 clade;D_4__uncultured bacterium;D_5__uncultured bacterium;D_6__uncultured bacterium	0	0	0	30	0	0
D_0__Bacteria ::: D_0__Bacteria;D_1__Proteobacteria ::: D_0__Bacteria;D_1__Proteobacteria;D_2__Gammaproteobacteria ::: D_0__Bacteria;D_1__Proteobacteria;D_2__Gammaproteobacteria;D_3__OM182 clade ::: D_0__Bacteria;D_1__Proteobacteria;D_2__Gammaproteobacteria;D_3__OM182 clade;D_4__uncultured marine microorganism ::: D_0__Bacteria;D_1__Proteobacteria;D_2__Gammaproteobacteria;D_3__OM182 clade;D_4__uncultured marine microorganism;D_5__uncultured marine microorganism ::: D_0__Bacteria;D_1__Proteobacteria;D_2__Gammaproteobacteria;D_3__OM182 clade;D_4__uncultured marine microorganism;D_5__uncultured marine microorganism;D_6__uncultured marine microorganism	19	0	0	0	0	0
D_0__Bacteria ::: D_0__Bacteria;D_1__Proteobacteria ::: D_0__Bacteria;D_1__Proteobacteria;D_2__Gammaproteobacteria ::: D_0__Bacteria;D_1__Proteobacteria;D_2__Gammaproteobacteria;D_3__Oceanospirillales	2	0	0	0	0	0
D_0__Bacteria ::: D_0__Bacteria;D_1__Proteobacteria ::: D_0__Bacteria;D_1__Proteobacteria;D_2__Gammaproteobacteria ::: D_0__Bacteria;D_1__Proteobacteria;D_2__Gammaproteobacteria;D_3__Oceanospirillales ::: D_0__Bacteria;D_1__Proteobacteria;D_2__Gammaproteobacteria;D_3__Oceanospirillales;D_4__Alcanivoracaceae ::: D_0__Bacteria;D_1__Proteobacteria;D_2__Gammaproteobacteria;D_3__Oceanospirillales;D_4__Alcanivoracaceae;D_5__Alcanivorax	23	0	0	0	331	0
D_0__Bacteria ::: D_0__Bacteria;D_1__Proteobacteria ::: D_0__Bacteria;D_1__Proteobacteria;D_2__Gammaproteobacteria ::: D_0__Bacteria;D_1__Proteobacteria;D_2__Gammaproteobacteria;D_3__Oceanospirillales ::: D_0__Bacteria;D_1__Proteobacteria;D_2__Gammaproteobacteria;D_3__Oceanospirillales;D_4__Alcanivoracaceae ::: D_0__Bacteria;D_1__Proteobacteria;D_2__Gammaproteobacteria;D_3__Oceanospirillales;D_4__Alcanivoracaceae;D_5__Alcanivorax ::: D_0__Bacteria;D_1__Proteobacteria;D_2__Gammaproteobacteria;D_3__Oceanospirillales;D_4__Alcanivoracaceae;D_5__Alcanivorax;Ambiguous_taxa	15195	422	10351	1984	11715	95
D_0__Bacteria ::: D_0__Bacteria;D_1__Proteobacteria ::: D_0__Bacteria;D_1__Proteobacteria;D_2__Gammaproteobacteria ::: D_0__Bacteria;D_1__Proteobacteria;D_2__Gammaproteobacteria;D_3__Oceanospirillales ::: D_0__Bacteria;D_1__Proteobacteria;D_2__Gammaproteobacteria;D_3__Oceanospirillales;D_4__Alcanivoracaceae ::: D_0__Bacteria;D_1__Proteobacteria;D_2__Gammaproteobacteria;D_3__Oceanospirillales;D_4__Alcanivoracaceae;D_5__Alcanivorax ::: D_0__Bacteria;D_1__Proteobacteria;D_2__Gammaproteobacteria;D_3__Oceanospirillales;D_4__Alcanivoracaceae;D_5__Alcanivorax;D_6__Alcanivorax balearicus	140	0	0	0	114	0
D_0__Bacteria ::: D_0__Bacteria;D_1__Proteobacteria ::: D_0__Bacteria;D_1__Proteobacteria;D_2__Gammaproteobacteria ::: D_0__Bacteria;D_1__Proteobacteria;D_2__Gammaproteobacteria;D_3__Oceanospirillales ::: D_0__Bacteria;D_1__Proteobacteria;D_2__Gammaproteobacteria;D_3__Oceanospirillales;D_4__Alcanivoracaceae ::: D_0__Bacteria;D_1__Proteobacteria;D_2__Gammaproteobacteria;D_3__Oceanospirillales;D_4__Alcanivoracaceae;D_5__Alcanivorax ::: D_0__Bacteria;D_1__Proteobacteria;D_2__Gammaproteobacteria;D_3__Oceanospirillales;D_4__Alcanivoracaceae;D_5__Alcanivorax;D_6__uncultured Alcanivorax sp.	1	0	0	0	0	0
D_0__Bacteria ::: D_0__Bacteria;D_1__Proteobacteria ::: D_0__Bacteria;D_1__Proteobacteria;D_2__Gammaproteobacteria ::: D_0__Bacteria;D_1__Proteobacteria;D_2__Gammaproteobacteria;D_3__Oceanospirillales ::: D_0__Bacteria;D_1__Proteobacteria;D_2__Gammaproteobacteria;D_3__Oceanospirillales;D_4__Alcanivoracaceae ::: D_0__Bacteria;D_1__Proteobacteria;D_2__Gammaproteobacteria;D_3__Oceanospirillales;D_4__Alcanivoracaceae;D_5__Alcanivorax ::: D_0__Bacteria;D_1__Proteobacteria;D_2__Gammaproteobacteria;D_3__Oceanospirillales;D_4__Alcanivoracaceae;D_5__Alcanivorax;D_6__uncultured bacterium	7396	606	0	0	0	0
D_0__Bacteria ::: D_0__Bacteria;D_1__Proteobacteria ::: D_0__Bacteria;D_1__Proteobacteria;D_2__Gammaproteobacteria ::: D_0__Bacteria;D_1__Proteobacteria;D_2__Gammaproteobacteria;D_3__Oceanospirillales ::: D_0__Bacteria;D_1__Proteobacteria;D_2__Gammaproteobacteria;D_3__Oceanospirillales;D_4__Halomonadaceae ::: D_0__Bacteria;D_1__Proteobacteria;D_2__Gammaproteobacteria;D_3__Oceanospirillales;D_4__Halomonadaceae;D_5__Halomonas ::: D_0__Bacteria;D_1__Proteobacteria;D_2__Gammaproteobacteria;D_3__Oceanospirillales;D_4__Halomonadaceae;D_5__Halomonas;Ambiguous_taxa	0	0	113	0	190	0
D_0__Bacteria ::: D_0__Bacteria;D_1__Proteobacteria ::: D_0__Bacteria;D_1__Proteobacteria;D_2__Gammaproteobacteria ::: D_0__Bacteria;D_1__Proteobacteria;D_2__Gammaproteobacteria;D_3__Oceanospirillales ::: D_0__Bacteria;D_1__Proteobacteria;D_2__Gammaproteobacteria;D_3__Oceanospirillales;D_4__Halomonadaceae ::: D_0__Bacteria;D_1__Proteobacteria;D_2__Gammaproteobacteria;D_3__Oceanospirillales;D_4__Halomonadaceae;D_5__Halomonas ::: D_0__Bacteria;D_1__Proteobacteria;D_2__Gammaproteobacteria;D_3__Oceanospirillales;D_4__Halomonadaceae;D_5__Halomonas;D_6__uncultured bacterium	0	18	0	0	0	0
D_0__Bacteria ::: D_0__Bacteria;D_1__Proteobacteria ::: D_0__Bacteria;D_1__Proteobacteria;D_2__Gammaproteobacteria ::: D_0__Bacteria;D_1__Proteobacteria;D_2__Gammaproteobacteria;D_3__Oceanospirillales ::: D_0__Bacteria;D_1__Proteobacteria;D_2__Gammaproteobacteria;D_3__Oceanospirillales;D_4__Nitrincolaceae ::: D_0__Bacteria;D_1__Proteobacteria;D_2__Gammaproteobacteria;D_3__Oceanospirillales;D_4__Nitrincolaceae;D_5__Amphritea ::: D_0__Bacteria;D_1__Proteobacteria;D_2__Gammaproteobacteria;D_3__Oceanospirillales;D_4__Nitrincolaceae;D_5__Amphritea;D_6__uncultured Marinobacterium sp.	0	0	0	0	2725	160
D_0__Bacteria ::: D_0__Bacteria;D_1__Proteobacteria ::: D_0__Bacteria;D_1__Proteobacteria;D_2__Gammaproteobacteria ::: D_0__Bacteria;D_1__Proteobacteria;D_2__Gammaproteobacteria;D_3__Oceanospirillales ::: D_0__Bacteria;D_1__Proteobacteria;D_2__Gammaproteobacteria;D_3__Oceanospirillales;D_4__Nitrincolaceae ::: D_0__Bacteria;D_1__Proteobacteria;D_2__Gammaproteobacteria;D_3__Oceanospirillales;D_4__Nitrincolaceae;D_5__Amphritea ::: D_0__Bacteria;D_1__Proteobacteria;D_2__Gammaproteobacteria;D_3__Oceanospirillales;D_4__Nitrincolaceae;D_5__Amphritea;D_6__uncultured bacterium	0	0	0	0	1346	62
D_0__Bacteria ::: D_0__Bacteria;D_1__Proteobacteria ::: D_0__Bacteria;D_1__Proteobacteria;D_2__Gammaproteobacteria ::: D_0__Bacteria;D_1__Proteobacteria;D_2__Gammaproteobacteria;D_3__Oceanospirillales ::: D_0__Bacteria;D_1__Proteobacteria;D_2__Gammaproteobacteria;D_3__Oceanospirillales;D_4__Nitrincolaceae ::: D_0__Bacteria;D_1__Proteobacteria;D_2__Gammaproteobacteria;D_3__Oceanospirillales;D_4__Nitrincolaceae;D_5__Profundimonas ::: D_0__Bacteria;D_1__Proteobacteria;D_2__Gammaproteobacteria;D_3__Oceanospirillales;D_4__Nitrincolaceae;D_5__Profundimonas;D_6__uncultured marine bacterium	0	0	300	255	0	0
D_0__Bacteria ::: D_0__Bacteria;D_1__Proteobacteria ::: D_0__Bacteria;D_1__Proteobacteria;D_2__Gammaproteobacteria ::: D_0__Bacteria;D_1__Proteobacteria;D_2__Gammaproteobacteria;D_3__Oceanospirillales ::: D_0__Bacteria;D_1__Proteobacteria;D_2__Gammaproteobacteria;D_3__Oceanospirillales;D_4__Oleiphilaceae ::: D_0__Bacteria;D_1__Proteobacteria;D_2__Gammaproteobacteria;D_3__Oceanospirillales;D_4__Oleiphilaceae;D_5__Oleiphilus	0	0	0	32	0	0
D_0__Bacteria ::: D_0__Bacteria;D_1__Proteobacteria ::: D_0__Bacteria;D_1__Proteobacteria;D_2__Gammaproteobacteria ::: D_0__Bacteria;D_1__Proteobacteria;D_2__Gammaproteobacteria;D_3__Oceanospirillales ::: D_0__Bacteria;D_1__Proteobacteria;D_2__Gammaproteobacteria;D_3__Oceanospirillales;D_4__Oleiphilaceae ::: D_0__Bacteria;D_1__Proteobacteria;D_2__Gammaproteobacteria;D_3__Oceanospirillales;D_4__Oleiphilaceae;D_5__Oleiphilus ::: D_0__Bacteria;D_1__Proteobacteria;D_2__Gammaproteobacteria;D_3__Oceanospirillales;D_4__Oleiphilaceae;D_5__Oleiphilus;Ambiguous_taxa	0	0	62	86	0	0
D_0__Bacteria ::: D_0__Bacteria;D_1__Proteobacteria ::: D_0__Bacteria;D_1__Proteobacteria;D_2__Gammaproteobacteria ::: D_0__Bacteria;D_1__Proteobacteria;D_2__Gammaproteobacteria;D_3__Oceanospirillales ::: D_0__Bacteria;D_1__Proteobacteria;D_2__Gammaproteobacteria;D_3__Oceanospirillales;D_4__Pseudohongiellaceae ::: D_0__Bacteria;D_1__Proteobacteria;D_2__Gammaproteobacteria;D_3__Oceanospirillales;D_4__Pseudohongiellaceae;D_5__Pseudohongiella ::: D_0__Bacteria;D_1__Proteobacteria;D_2__Gammaproteobacteria;D_3__Oceanospirillales;D_4__Pseudohongiellaceae;D_5__Pseudohongiella;D_6__uncultured bacterium	143	0	0	0	24	0
D_0__Bacteria ::: D_0__Bacteria;D_1__Proteobacteria ::: D_0__Bacteria;D_1__Proteobacteria;D_2__Gammaproteobacteria ::: D_0__Bacteria;D_1__Proteobacteria;D_2__Gammaproteobacteria;D_3__Oceanospirillales ::: D_0__Bacteria;D_1__Proteobacteria;D_2__Gammaproteobacteria;D_3__Oceanospirillales;D_4__Saccharospirillaceae	0	0	2	0	0	0
D_0__Bacteria ::: D_0__Bacteria;D_1__Proteobacteria ::: D_0__Bacteria;D_1__Proteobacteria;D_2__Gammaproteobacteria ::: D_0__Bacteria;D_1__Proteobacteria;D_2__Gammaproteobacteria;D_3__Oceanospirillales ::: D_0__Bacteria;D_1__Proteobacteria;D_2__Gammaproteobacteria;D_3__Oceanospirillales;D_4__Saccharospirillaceae ::: D_0__Bacteria;D_1__Proteobacteria;D_2__Gammaproteobacteria;D_3__Oceanospirillales;D_4__Saccharospirillaceae;D_5__Oleispira	48	0	0	0	0	0
D_0__Bacteria ::: D_0__Bacteria;D_1__Proteobacteria ::: D_0__Bacteria;D_1__Proteobacteria;D_2__Gammaproteobacteria ::: D_0__Bacteria;D_1__Proteobacteria;D_2__Gammaproteobacteria;D_3__Oceanospirillales ::: D_0__Bacteria;D_1__Proteobacteria;D_2__Gammaproteobacteria;D_3__Oceanospirillales;D_4__Saccharospirillaceae ::: D_0__Bacteria;D_1__Proteobacteria;D_2__Gammaproteobacteria;D_3__Oceanospirillales;D_4__Saccharospirillaceae;D_5__uncultured	0	0	15	0	0	0
D_0__Bacteria ::: D_0__Bacteria;D_1__Proteobacteria ::: D_0__Bacteria;D_1__Proteobacteria;D_2__Gammaproteobacteria ::: D_0__Bacteria;D_1__Proteobacteria;D_2__Gammaproteobacteria;D_3__Oceanospirillales ::: D_0__Bacteria;D_1__Proteobacteria;D_2__Gammaproteobacteria;D_3__Oceanospirillales;D_4__Saccharospirillaceae ::: D_0__Bacteria;D_1__Proteobacteria;D_2__Gammaproteobacteria;D_3__Oceanospirillales;D_4__Saccharospirillaceae;D_5__uncultured ::: D_0__Bacteria;D_1__Proteobacteria;D_2__Gammaproteobacteria;D_3__Oceanospirillales;D_4__Saccharospirillaceae;D_5__uncultured;Ambiguous_taxa	0	0	2481	2190	0	0
D_0__Bacteria ::: D_0__Bacteria;D_1__Proteobacteria ::: D_0__Bacteria;D_1__Proteobacteria;D_2__Gammaproteobacteria ::: D_0__Bacteria;D_1__Proteobacteria;D_2__Gammaproteobacteria;D_3__Pseudomonadales ::: D_0__Bacteria;D_1__Proteobacteria;D_2__Gammaproteobacteria;D_3__Pseudomonadales;D_4__Moraxellaceae ::: D_0__Bacteria;D_1__Proteobacteria;D_2__Gammaproteobacteria;D_3__Pseudomonadales;D_4__Moraxellaceae;D_5__Acinetobacter ::: D_0__Bacteria;D_1__Proteobacteria;D_2__Gammaproteobacteria;D_3__Pseudomonadales;D_4__Moraxellaceae;D_5__Acinetobacter;Ambiguous_taxa	0	0	0	0	0	26
D_0__Bacteria ::: D_0__Bacteria;D_1__Proteobacteria ::: D_0__Bacteria;D_1__Proteobacteria;D_2__Gammaproteobacteria ::: D_0__Bacteria;D_1__Proteobacteria;D_2__Gammaproteobacteria;D_3__Pseudomonadales ::: D_0__Bacteria;D_1__Proteobacteria;D_2__Gammaproteobacteria;D_3__Pseudomonadales;D_4__Pseudomonadaceae ::: D_0__Bacteria;D_1__Proteobacteria;D_2__Gammaproteobacteria;D_3__Pseudomonadales;D_4__Pseudomonadaceae;D_5__Pseudomonas ::: D_0__Bacteria;D_1__Proteobacteria;D_2__Gammaproteobacteria;D_3__Pseudomonadales;D_4__Pseudomonadaceae;D_5__Pseudomonas;Ambiguous_taxa	0	21	68	1669	557	74
D_0__Bacteria ::: D_0__Bacteria;D_1__Proteobacteria ::: D_0__Bacteria;D_1__Proteobacteria;D_2__Gammaproteobacteria ::: D_0__Bacteria;D_1__Proteobacteria;D_2__Gammaproteobacteria;D_3__SAR86 clade ::: D_0__Bacteria;D_1__Proteobacteria;D_2__Gammaproteobacteria;D_3__SAR86 clade;D_4__uncultured bacterium ::: D_0__Bacteria;D_1__Proteobacteria;D_2__Gammaproteobacteria;D_3__SAR86 clade;D_4__uncultured bacterium;D_5__uncultured bacterium ::: D_0__Bacteria;D_1__Proteobacteria;D_2__Gammaproteobacteria;D_3__SAR86 clade;D_4__uncultured bacterium;D_5__uncultured bacterium;D_6__uncultured bacterium	20	0	0	0	0	0
D_0__Bacteria ::: D_0__Bacteria;D_1__Proteobacteria ::: D_0__Bacteria;D_1__Proteobacteria;D_2__Gammaproteobacteria ::: D_0__Bacteria;D_1__Proteobacteria;D_2__Gammaproteobacteria;D_3__UBA10353 marine group ::: D_0__Bacteria;D_1__Proteobacteria;D_2__Gammaproteobacteria;D_3__UBA10353 marine group;Ambiguous_taxa ::: D_0__Bacteria;D_1__Proteobacteria;D_2__Gammaproteobacteria;D_3__UBA10353 marine group;Ambiguous_taxa;Ambiguous_taxa ::: D_0__Bacteria;D_1__Proteobacteria;D_2__Gammaproteobacteria;D_3__UBA10353 marine group;Ambiguous_taxa;Ambiguous_taxa;Ambiguous_taxa	182	0	0	0	0	0
D_0__Bacteria ::: D_0__Bacteria;D_1__Proteobacteria ::: D_0__Bacteria;D_1__Proteobacteria;D_2__Gammaproteobacteria ::: D_0__Bacteria;D_1__Proteobacteria;D_2__Gammaproteobacteria;D_3__UBA4486	0	0	77	34	0	0
D_0__Bacteria ::: D_0__Bacteria;D_1__Proteobacteria ::: D_0__Bacteria;D_1__Proteobacteria;D_2__Gammaproteobacteria ::: D_0__Bacteria;D_1__Proteobacteria;D_2__Gammaproteobacteria;D_3__Xanthomonadales ::: D_0__Bacteria;D_1__Proteobacteria;D_2__Gammaproteobacteria;D_3__Xanthomonadales;D_4__Rhodanobacteraceae ::: D_0__Bacteria;D_1__Proteobacteria;D_2__Gammaproteobacteria;D_3__Xanthomonadales;D_4__Rhodanobacteraceae;D_5__Rhodanobacter ::: D_0__Bacteria;D_1__Proteobacteria;D_2__Gammaproteobacteria;D_3__Xanthomonadales;D_4__Rhodanobacteraceae;D_5__Rhodanobacter;Ambiguous_taxa	0	0	0	0	0	23
D_0__Bacteria ::: D_0__Bacteria;D_1__Proteobacteria ::: D_0__Bacteria;D_1__Proteobacteria;D_2__Gammaproteobacteria ::: D_0__Bacteria;D_1__Proteobacteria;D_2__Gammaproteobacteria;D_3__Xanthomonadales ::: D_0__Bacteria;D_1__Proteobacteria;D_2__Gammaproteobacteria;D_3__Xanthomonadales;D_4__Rhodanobacteraceae ::: D_0__Bacteria;D_1__Proteobacteria;D_2__Gammaproteobacteria;D_3__Xanthomonadales;D_4__Rhodanobacteraceae;D_5__Rhodanobacter ::: D_0__Bacteria;D_1__Proteobacteria;D_2__Gammaproteobacteria;D_3__Xanthomonadales;D_4__Rhodanobacteraceae;D_5__Rhodanobacter;D_6__uncultured gamma proteobacterium	4	95	0	0	0	0
D_0__Bacteria ::: D_0__Bacteria;D_1__Proteobacteria ::: D_0__Bacteria;D_1__Proteobacteria;D_2__Gammaproteobacteria ::: D_0__Bacteria;D_1__Proteobacteria;D_2__Gammaproteobacteria;D_3__Xanthomonadales ::: D_0__Bacteria;D_1__Proteobacteria;D_2__Gammaproteobacteria;D_3__Xanthomonadales;D_4__Xanthomonadaceae ::: D_0__Bacteria;D_1__Proteobacteria;D_2__Gammaproteobacteria;D_3__Xanthomonadales;D_4__Xanthomonadaceae;D_5__Lysobacter ::: D_0__Bacteria;D_1__Proteobacteria;D_2__Gammaproteobacteria;D_3__Xanthomonadales;D_4__Xanthomonadaceae;D_5__Lysobacter;D_6__uncultured bacterium	0	20	0	0	0	36
D_0__Bacteria ::: D_0__Bacteria;D_1__Proteobacteria ::: D_0__Bacteria;D_1__Proteobacteria;D_2__Gammaproteobacteria ::: D_0__Bacteria;D_1__Proteobacteria;D_2__Gammaproteobacteria;D_3__Xanthomonadales ::: D_0__Bacteria;D_1__Proteobacteria;D_2__Gammaproteobacteria;D_3__Xanthomonadales;D_4__Xanthomonadaceae ::: D_0__Bacteria;D_1__Proteobacteria;D_2__Gammaproteobacteria;D_3__Xanthomonadales;D_4__Xanthomonadaceae;D_5__Stenotrophomonas ::: D_0__Bacteria;D_1__Proteobacteria;D_2__Gammaproteobacteria;D_3__Xanthomonadales;D_4__Xanthomonadaceae;D_5__Stenotrophomonas;Ambiguous_taxa	0	36	0	0	0	0
D_0__Bacteria ::: D_0__Bacteria;D_1__Tenericutes ::: D_0__Bacteria;D_1__Tenericutes;D_2__Mollicutes ::: D_0__Bacteria;D_1__Tenericutes;D_2__Mollicutes;D_3__Haloplasmatales ::: D_0__Bacteria;D_1__Tenericutes;D_2__Mollicutes;D_3__Haloplasmatales;D_4__Haloplasmataceae ::: D_0__Bacteria;D_1__Tenericutes;D_2__Mollicutes;D_3__Haloplasmatales;D_4__Haloplasmataceae;D_5__Haloplasma ::: D_0__Bacteria;D_1__Tenericutes;D_2__Mollicutes;D_3__Haloplasmatales;D_4__Haloplasmataceae;D_5__Haloplasma;D_6__uncultured bacterium	8	21	0	0	0	0
