Taxonomy	SRR6975884	SRR6975885	SRR6975886	SRR6975887	SRR6975888	SRR6975889	SRR6975890	SRR6975891	SRR6975892	SRR6975893	SRR6975894	SRR6975895	SRR6975896	SRR6975897	SRR6975898	SRR6975899	SRR6975900	SRR6975901	SRR6975902	SRR6975903	SRR6975904	SRR6975905	SRR6975906	SRR6975907	SRR6975908	SRR6975909	SRR6975910	SRR6975911	SRR6975912	SRR6975913	SRR6975914	SRR6975915	SRR6975916	SRR6975917	SRR6975918	SRR6975919	SRR6975920	SRR6975921	SRR6975922	SRR6975923	SRR6975924	SRR6975925	SRR6975926	SRR6975927	SRR6975928	SRR6975929	SRR6975930	SRR6975931	SRR6975932	SRR6975933	SRR6975934	SRR6975935	SRR6975936	SRR6975937	SRR6975938	SRR6975939	SRR6975940	SRR6975941	SRR6975942	SRR6975943	SRR6975944	SRR6975945	SRR6975946	SRR6975947	SRR6975948	SRR6975949	SRR6975950	SRR6975951	SRR6975952	SRR6975953	SRR6975954	SRR6975955	SRR6975956	SRR6975957	SRR6975958	SRR6975959	SRR6975960	SRR6975961	SRR6975962	SRR6975963	SRR6975964	SRR6975965	SRR6975966	SRR6975967	SRR6975968	SRR6975969	SRR6975970	SRR6975971	SRR6975972	SRR6975973	SRR6975974	SRR6975975	SRR6975976	SRR6975977	SRR6975978	SRR6975979	SRR6975980	SRR6975981	SRR6975982	SRR6975983	SRR6975984	SRR6975985	SRR6975986	SRR6975987	SRR6975988	SRR6975989	SRR6975990	SRR6975991	SRR6975992	SRR6975993	SRR6975994	SRR6975995	SRR6975996	SRR6975997	SRR6975998	SRR6975999	SRR6976000	SRR6976001	SRR6976002	SRR6976003	SRR6976004	SRR6976005	SRR6976006	SRR6976007	SRR6976008	SRR6976009	SRR6976010	SRR6976011	SRR6976012	SRR6976013	SRR6976014	SRR6976015	SRR6976016	SRR6976017	SRR6976018	SRR6976019	SRR6976020	SRR6976021	SRR6976022	SRR6976023	SRR6976024	SRR6976025	SRR6976026	SRR6976027	SRR6976028	SRR6976029	SRR6976030	SRR6976031	SRR6976032	SRR6976033	SRR6976034	SRR6976035	SRR6976036	SRR6976037	SRR6976038	SRR6976039	SRR6976040	SRR6976041	SRR6976042
D_0__Bacteria ::: D_0__Bacteria;D_1__Bacteroidetes ::: D_0__Bacteria;D_1__Bacteroidetes;D_2__Bacteroidia	0	0	0	0	0	0	0	0	0	0	0	0	0	0	0	0	0	0	0	0	0	0	0	0	0	18	0	0	0	0	0	0	0	0	0	0	0	0	0	0	0	0	0	0	0	0	19	0	0	0	0	0	0	0	0	0	0	0	0	56	0	0	0	0	0	0	0	0	0	0	0	0	0	0	0	0	0	0	0	0	0	0	0	0	0	0	0	0	0	0	0	0	0	0	0	0	0	0	0	0	0	68	0	0	0	0	0	0	0	0	0	0	0	0	0	0	0	0	0	0	0	0	0	0	0	11	0	38	0	0	0	0	0	0	15	119	0	0	0	0	0	0	0	0	0	0	0	0	0	0	0	0	0	0	26	0	0	0	0
D_0__Bacteria ::: D_0__Bacteria;D_1__Bacteroidetes ::: D_0__Bacteria;D_1__Bacteroidetes;D_2__Bacteroidia ::: D_0__Bacteria;D_1__Bacteroidetes;D_2__Bacteroidia;D_3__Flavobacteriales	0	0	0	0	0	0	0	0	0	0	0	0	0	0	0	0	0	0	0	0	0	0	0	0	0	0	0	0	0	0	0	0	0	0	0	0	0	0	0	0	0	0	0	0	0	0	0	0	0	0	0	0	0	0	0	0	0	0	0	0	0	0	0	0	0	0	0	0	0	0	0	0	0	0	0	0	0	0	0	0	0	0	0	0	0	0	0	53	0	0	0	0	0	0	0	0	0	0	0	0	0	0	0	0	0	0	0	0	0	0	0	0	0	0	0	0	0	0	0	0	0	0	0	0	0	0	0	0	0	0	0	0	0	0	0	0	0	0	0	0	0	0	0	0	0	0	0	0	0	0	0	0	0	0	0	0	0	0	0
D_0__Bacteria ::: D_0__Bacteria;D_1__Bacteroidetes ::: D_0__Bacteria;D_1__Bacteroidetes;D_2__Bacteroidia ::: D_0__Bacteria;D_1__Bacteroidetes;D_2__Bacteroidia;D_3__Flavobacteriales ::: D_0__Bacteria;D_1__Bacteroidetes;D_2__Bacteroidia;D_3__Flavobacteriales;D_4__Cryomorphaceae ::: D_0__Bacteria;D_1__Bacteroidetes;D_2__Bacteroidia;D_3__Flavobacteriales;D_4__Cryomorphaceae;D_5__uncultured ::: D_0__Bacteria;D_1__Bacteroidetes;D_2__Bacteroidia;D_3__Flavobacteriales;D_4__Cryomorphaceae;D_5__uncultured;D_6__uncultured bacterium	0	0	0	0	0	0	0	0	0	0	0	0	0	0	0	0	0	0	0	0	0	0	0	0	0	0	0	0	0	0	0	0	0	0	0	0	0	0	0	0	0	0	0	0	0	0	0	0	0	0	0	0	0	0	0	0	0	0	0	0	0	0	0	0	0	0	0	0	0	0	0	0	0	0	0	0	0	0	0	0	0	0	0	0	0	0	0	0	0	0	0	0	0	0	0	0	0	0	0	0	0	0	0	0	0	0	0	0	0	0	0	0	0	0	0	0	0	0	0	0	0	0	0	0	0	0	0	0	0	0	0	0	0	0	0	94	0	0	0	0	0	0	0	0	0	0	0	0	0	0	0	0	0	0	0	0	0	0	0
D_0__Bacteria ::: D_0__Bacteria;D_1__Bacteroidetes ::: D_0__Bacteria;D_1__Bacteroidetes;D_2__Bacteroidia ::: D_0__Bacteria;D_1__Bacteroidetes;D_2__Bacteroidia;D_3__Flavobacteriales ::: D_0__Bacteria;D_1__Bacteroidetes;D_2__Bacteroidia;D_3__Flavobacteriales;D_4__NS9 marine group	0	0	0	0	0	0	0	0	0	0	0	0	0	0	0	0	0	0	0	0	0	0	0	0	0	0	0	0	0	0	0	0	0	0	0	0	0	0	0	0	0	0	0	0	0	0	0	0	0	0	0	0	0	0	0	0	0	0	0	27	0	0	0	0	0	0	0	0	0	0	0	0	0	0	0	0	0	0	0	0	0	0	0	0	0	0	0	26	0	0	0	0	0	0	0	0	0	0	0	0	0	0	0	0	0	0	0	0	0	0	0	0	0	0	0	0	0	0	0	0	0	0	0	0	0	0	0	0	0	0	0	0	0	0	0	0	0	0	0	0	0	0	0	0	0	0	0	0	0	0	0	0	0	0	0	0	0	0	0
D_0__Bacteria ::: D_0__Bacteria;D_1__Bacteroidetes ::: D_0__Bacteria;D_1__Bacteroidetes;D_2__Bacteroidia ::: D_0__Bacteria;D_1__Bacteroidetes;D_2__Bacteroidia;D_3__Flavobacteriales ::: D_0__Bacteria;D_1__Bacteroidetes;D_2__Bacteroidia;D_3__Flavobacteriales;D_4__Weeksellaceae ::: D_0__Bacteria;D_1__Bacteroidetes;D_2__Bacteroidia;D_3__Flavobacteriales;D_4__Weeksellaceae;D_5__Chryseobacterium	0	0	0	0	0	0	0	0	0	0	0	0	0	0	0	0	0	0	0	0	0	0	0	0	0	0	25	0	0	0	0	0	0	0	0	0	0	0	0	0	0	0	0	0	0	0	0	0	0	0	0	0	0	0	0	0	0	0	0	0	0	0	0	0	0	0	0	0	0	0	0	0	0	0	16	0	0	0	0	0	0	0	0	0	0	0	0	0	0	0	0	0	0	0	0	0	0	0	0	0	0	0	0	0	0	0	0	0	0	0	0	0	0	0	0	0	0	0	0	0	0	0	0	0	0	0	0	0	0	0	0	0	0	0	0	0	0	0	0	0	0	0	0	0	0	0	0	0	0	0	0	0	0	0	0	0	0	0	0
D_0__Bacteria ::: D_0__Bacteria;D_1__Bacteroidetes ::: D_0__Bacteria;D_1__Bacteroidetes;D_2__Bacteroidia ::: D_0__Bacteria;D_1__Bacteroidetes;D_2__Bacteroidia;D_3__Flavobacteriales ::: D_0__Bacteria;D_1__Bacteroidetes;D_2__Bacteroidia;D_3__Flavobacteriales;D_4__Weeksellaceae ::: D_0__Bacteria;D_1__Bacteroidetes;D_2__Bacteroidia;D_3__Flavobacteriales;D_4__Weeksellaceae;D_5__Cloacibacterium ::: D_0__Bacteria;D_1__Bacteroidetes;D_2__Bacteroidia;D_3__Flavobacteriales;D_4__Weeksellaceae;D_5__Cloacibacterium;D_6__uncultured bacterium	0	0	0	0	0	0	0	0	0	0	0	0	0	0	0	0	0	0	0	0	0	0	0	0	0	0	0	0	0	0	0	0	0	0	0	0	0	0	0	0	0	0	0	0	0	0	0	0	0	0	0	0	0	0	0	0	0	0	0	0	0	0	0	0	0	0	0	0	0	0	0	0	0	0	0	0	0	0	0	0	0	0	0	0	0	0	0	0	0	0	0	0	0	0	0	0	0	0	0	0	0	0	0	0	0	0	0	0	0	0	0	0	0	0	0	0	0	0	0	0	0	0	0	0	0	0	0	8	0	0	0	0	0	0	0	0	0	0	0	0	0	0	0	0	0	0	0	0	0	0	0	0	0	0	0	0	0	0	0
D_0__Bacteria ::: D_0__Bacteria;D_1__Proteobacteria ::: D_0__Bacteria;D_1__Proteobacteria;D_2__Alphaproteobacteria ::: D_0__Bacteria;D_1__Proteobacteria;D_2__Alphaproteobacteria;D_3__Rickettsiales ::: D_0__Bacteria;D_1__Proteobacteria;D_2__Alphaproteobacteria;D_3__Rickettsiales;D_4__S25-593	0	25143	0	0	0	0	0	0	0	0	0	0	0	0	0	0	0	0	0	0	0	0	0	0	0	0	0	0	0	0	0	0	0	0	0	0	37085	0	0	0	0	0	0	0	0	0	0	0	3758	0	0	0	0	0	0	0	0	0	0	0	0	0	0	0	0	0	0	0	0	0	0	0	0	0	0	0	0	63182	0	0	0	0	0	0	0	0	0	0	0	0	0	0	0	0	0	0	0	0	0	0	0	0	0	0	0	0	0	0	0	0	0	0	0	0	0	0	0	0	0	0	0	0	0	0	0	0	0	0	0	0	0	0	0	0	0	0	0	0	0	0	0	0	0	0	0	13541	0	0	16274	0	0	0	0	0	0	0	0	0	0
D_0__Bacteria ::: D_0__Bacteria;D_1__Proteobacteria ::: D_0__Bacteria;D_1__Proteobacteria;D_2__Alphaproteobacteria ::: D_0__Bacteria;D_1__Proteobacteria;D_2__Alphaproteobacteria;D_3__Rickettsiales ::: D_0__Bacteria;D_1__Proteobacteria;D_2__Alphaproteobacteria;D_3__Rickettsiales;D_4__S25-593 ::: D_0__Bacteria;D_1__Proteobacteria;D_2__Alphaproteobacteria;D_3__Rickettsiales;D_4__S25-593;Ambiguous_taxa ::: D_0__Bacteria;D_1__Proteobacteria;D_2__Alphaproteobacteria;D_3__Rickettsiales;D_4__S25-593;Ambiguous_taxa;Ambiguous_taxa	0	13788	0	0	0	0	0	13278	0	0	0	0	14912	0	0	0	0	0	0	0	0	0	0	0	0	0	0	0	0	0	0	39118	0	0	0	0	0	0	0	0	0	0	0	0	0	0	0	0	2301	0	0	0	0	0	0	0	0	0	0	0	0	0	0	0	0	0	0	0	0	0	0	0	0	0	0	33801	0	0	0	0	0	0	0	0	28006	0	0	0	0	0	0	0	0	0	0	0	0	0	0	0	0	0	0	0	0	0	19163	0	0	0	0	0	0	0	0	0	0	0	0	25889	0	0	0	0	0	0	0	0	8817	0	0	0	19516	0	0	0	10944	0	0	0	0	0	0	0	0	7536	0	0	8962	0	0	0	0	0	0	0	0	0	0
D_0__Bacteria ::: D_0__Bacteria;D_1__Proteobacteria ::: D_0__Bacteria;D_1__Proteobacteria;D_2__Alphaproteobacteria ::: D_0__Bacteria;D_1__Proteobacteria;D_2__Alphaproteobacteria;D_3__Rickettsiales ::: D_0__Bacteria;D_1__Proteobacteria;D_2__Alphaproteobacteria;D_3__Rickettsiales;D_4__S25-593 ::: D_0__Bacteria;D_1__Proteobacteria;D_2__Alphaproteobacteria;D_3__Rickettsiales;D_4__S25-593;D_5__uncultured bacterium ::: D_0__Bacteria;D_1__Proteobacteria;D_2__Alphaproteobacteria;D_3__Rickettsiales;D_4__S25-593;D_5__uncultured bacterium;D_6__uncultured bacterium	0	0	0	0	0	0	0	0	0	0	0	0	0	0	0	0	0	0	0	0	0	0	0	0	0	0	0	0	0	0	0	0	0	0	0	5172	0	0	0	0	0	0	0	0	0	0	0	0	0	0	0	0	0	0	0	0	0	0	0	0	0	0	0	0	0	0	0	0	0	0	0	0	0	0	0	0	0	0	0	0	0	0	0	0	0	0	0	0	0	0	0	0	0	0	0	0	0	0	0	0	0	0	0	0	0	0	0	0	0	0	0	0	0	0	0	0	0	0	0	0	0	0	0	0	0	0	0	0	0	0	0	0	0	0	0	0	0	0	0	0	0	0	0	0	0	0	0	0	0	0	0	0	0	0	0	0	0	0	0
D_0__Bacteria ::: D_0__Bacteria;D_1__Proteobacteria ::: D_0__Bacteria;D_1__Proteobacteria;D_2__Gammaproteobacteria	0	0	0	0	0	0	0	0	0	0	0	0	0	0	0	0	0	0	0	0	0	0	0	0	0	0	73	0	0	0	0	0	0	0	0	0	0	0	0	0	0	0	0	0	0	0	0	0	0	0	0	0	0	0	0	0	0	0	0	0	0	0	0	0	0	0	0	0	0	0	0	0	0	0	0	0	0	0	0	0	0	0	0	0	0	0	0	0	17	0	0	0	0	0	0	0	0	0	0	0	0	0	0	0	0	0	0	0	0	0	0	0	0	0	0	0	0	0	0	0	0	0	0	0	0	0	0	0	0	0	0	0	0	0	0	0	0	0	0	0	0	0	0	0	0	0	0	0	0	0	0	0	0	0	0	0	0	0	0
D_0__Bacteria ::: D_0__Bacteria;D_1__Proteobacteria ::: D_0__Bacteria;D_1__Proteobacteria;D_2__Gammaproteobacteria ::: D_0__Bacteria;D_1__Proteobacteria;D_2__Gammaproteobacteria;D_3__Alteromonadales ::: D_0__Bacteria;D_1__Proteobacteria;D_2__Gammaproteobacteria;D_3__Alteromonadales;D_4__Marinobacteraceae ::: D_0__Bacteria;D_1__Proteobacteria;D_2__Gammaproteobacteria;D_3__Alteromonadales;D_4__Marinobacteraceae;D_5__Marinobacter ::: D_0__Bacteria;D_1__Proteobacteria;D_2__Gammaproteobacteria;D_3__Alteromonadales;D_4__Marinobacteraceae;D_5__Marinobacter;D_6__Marinobacter hydrocarbonoclasticus	0	0	0	0	0	0	0	0	0	0	0	0	0	0	0	0	0	0	0	0	0	0	0	0	0	0	0	0	0	0	0	0	0	0	0	0	0	0	0	0	0	0	0	0	0	0	0	0	0	0	0	0	0	0	0	0	0	0	0	0	0	0	0	0	0	0	0	0	0	0	0	0	0	0	0	0	0	0	0	0	0	0	0	0	0	0	0	0	23	0	0	0	0	0	0	0	0	0	0	0	0	0	0	0	0	0	0	0	0	0	0	0	0	0	0	0	0	0	0	0	0	0	0	0	0	0	0	0	0	0	0	0	0	0	0	0	0	0	0	0	0	0	0	0	0	0	0	0	0	0	0	0	0	0	0	0	0	0	0
D_0__Bacteria ::: D_0__Bacteria;D_1__Proteobacteria ::: D_0__Bacteria;D_1__Proteobacteria;D_2__Gammaproteobacteria ::: D_0__Bacteria;D_1__Proteobacteria;D_2__Gammaproteobacteria;D_3__Cellvibrionales ::: D_0__Bacteria;D_1__Proteobacteria;D_2__Gammaproteobacteria;D_3__Cellvibrionales;D_4__Porticoccaceae ::: D_0__Bacteria;D_1__Proteobacteria;D_2__Gammaproteobacteria;D_3__Cellvibrionales;D_4__Porticoccaceae;D_5__SAR92 clade ::: D_0__Bacteria;D_1__Proteobacteria;D_2__Gammaproteobacteria;D_3__Cellvibrionales;D_4__Porticoccaceae;D_5__SAR92 clade;D_6__uncultured marine bacterium	0	0	0	0	0	0	0	0	0	0	0	0	0	0	0	0	0	0	0	0	0	0	0	0	0	0	0	0	0	0	0	0	0	0	0	0	0	0	0	0	0	0	0	0	0	0	0	0	0	0	0	0	0	0	0	0	0	0	0	0	0	0	0	0	0	0	0	0	0	0	0	0	0	0	0	0	0	0	0	0	0	0	0	0	0	0	0	0	23	0	0	0	0	0	0	0	0	0	0	0	0	0	0	0	0	0	0	0	0	0	0	0	0	0	0	0	0	0	0	0	0	0	0	0	0	0	0	0	0	0	0	0	0	0	0	0	0	0	0	0	0	0	0	0	0	0	0	0	0	0	0	0	0	0	0	0	0	0	0
D_0__Bacteria ::: D_0__Bacteria;D_1__Proteobacteria ::: D_0__Bacteria;D_1__Proteobacteria;D_2__Gammaproteobacteria ::: D_0__Bacteria;D_1__Proteobacteria;D_2__Gammaproteobacteria;D_3__Oceanospirillales ::: D_0__Bacteria;D_1__Proteobacteria;D_2__Gammaproteobacteria;D_3__Oceanospirillales;D_4__Nitrincolaceae ::: D_0__Bacteria;D_1__Proteobacteria;D_2__Gammaproteobacteria;D_3__Oceanospirillales;D_4__Nitrincolaceae;D_5__Profundimonas ::: D_0__Bacteria;D_1__Proteobacteria;D_2__Gammaproteobacteria;D_3__Oceanospirillales;D_4__Nitrincolaceae;D_5__Profundimonas;D_6__proteobacterium symbiont of Osedax frankpressi	0	0	0	0	0	0	0	0	0	0	0	0	0	0	0	0	0	0	0	0	0	0	0	0	0	0	0	0	0	0	0	0	0	0	0	0	0	0	0	0	0	0	0	0	0	0	0	0	0	0	0	0	0	0	0	0	0	0	0	0	0	0	0	0	0	0	0	0	0	0	0	0	0	0	0	0	0	0	0	0	0	0	0	0	0	0	0	0	17	0	0	0	0	0	0	0	0	0	0	0	0	0	0	0	0	0	0	0	0	0	0	0	0	0	0	0	0	0	0	0	0	0	0	0	0	0	0	0	0	0	0	0	0	0	0	0	0	0	0	0	0	0	0	0	0	0	0	0	0	0	0	0	0	0	0	0	0	0	0
D_0__Bacteria ::: D_0__Bacteria;D_1__Proteobacteria ::: D_0__Bacteria;D_1__Proteobacteria;D_2__Gammaproteobacteria ::: D_0__Bacteria;D_1__Proteobacteria;D_2__Gammaproteobacteria;D_3__SAR86 clade ::: D_0__Bacteria;D_1__Proteobacteria;D_2__Gammaproteobacteria;D_3__SAR86 clade;D_4__uncultured marine bacterium ::: D_0__Bacteria;D_1__Proteobacteria;D_2__Gammaproteobacteria;D_3__SAR86 clade;D_4__uncultured marine bacterium;D_5__uncultured marine bacterium ::: D_0__Bacteria;D_1__Proteobacteria;D_2__Gammaproteobacteria;D_3__SAR86 clade;D_4__uncultured marine bacterium;D_5__uncultured marine bacterium;D_6__uncultured marine bacterium	0	0	0	0	0	0	0	0	0	0	0	0	0	0	0	0	0	0	0	0	0	0	0	0	0	0	262	0	0	0	0	0	0	0	0	0	0	0	0	0	0	0	0	0	0	0	0	0	0	0	0	0	0	0	0	0	0	0	0	0	0	0	0	0	0	0	0	0	0	0	0	0	0	0	0	0	0	0	0	0	0	0	0	0	0	0	0	0	0	0	0	0	0	0	0	0	0	0	0	0	0	0	0	0	0	0	0	0	0	0	0	0	0	0	0	0	0	0	0	0	0	0	0	0	0	0	0	0	0	0	0	0	0	0	0	0	0	0	0	0	0	0	0	0	0	0	0	0	0	0	0	0	0	0	0	0	0	0	0
D_0__Eukaryota ::: D_0__Eukaryota;D_1__Incertae Sedis ::: D_0__Eukaryota;D_1__Incertae Sedis;D_2__Telonema ::: D_0__Eukaryota;D_1__Incertae Sedis;D_2__Telonema;D_3__uncultured eukaryote ::: D_0__Eukaryota;D_1__Incertae Sedis;D_2__Telonema;D_3__uncultured eukaryote;D_4__uncultured eukaryote ::: D_0__Eukaryota;D_1__Incertae Sedis;D_2__Telonema;D_3__uncultured eukaryote;D_4__uncultured eukaryote;D_5__uncultured eukaryote ::: D_0__Eukaryota;D_1__Incertae Sedis;D_2__Telonema;D_3__uncultured eukaryote;D_4__uncultured eukaryote;D_5__uncultured eukaryote;D_6__uncultured eukaryote	0	0	0	0	0	0	0	0	0	0	0	0	0	0	0	0	0	0	0	0	0	0	0	0	0	0	0	0	0	0	0	0	0	0	0	0	0	0	0	0	0	0	0	0	0	0	0	0	0	0	0	0	0	0	0	0	0	0	0	0	0	0	0	0	0	0	0	0	0	0	0	0	0	0	0	0	0	0	0	0	0	0	0	0	0	0	0	0	0	0	0	0	0	0	0	0	0	0	0	0	0	0	0	0	0	0	0	0	0	0	0	0	0	0	0	0	0	0	0	0	0	0	0	0	0	0	0	0	0	0	0	0	0	0	0	0	0	0	0	0	0	0	0	0	0	0	0	0	0	2	0	0	0	0	0	0	0	0	0
D_0__Eukaryota ::: D_0__Eukaryota;D_1__Opisthokonta ::: D_0__Eukaryota;D_1__Opisthokonta;D_2__Holozoa ::: D_0__Eukaryota;D_1__Opisthokonta;D_2__Holozoa;D_3__Metazoa (Animalia) ::: D_0__Eukaryota;D_1__Opisthokonta;D_2__Holozoa;D_3__Metazoa (Animalia);D_8__Arachnida ::: D_0__Eukaryota;D_1__Opisthokonta;D_2__Holozoa;D_3__Metazoa (Animalia);D_8__Arachnida;D_9__Acari ::: D_0__Eukaryota;D_1__Opisthokonta;D_2__Holozoa;D_3__Metazoa (Animalia);D_8__Arachnida;D_9__Acari;D_10__Hygrobates nigromaculatus	0	0	0	0	0	0	0	0	0	0	0	0	0	0	0	0	0	0	0	0	0	0	0	0	0	0	0	0	0	0	0	0	0	0	0	0	0	0	0	0	0	0	0	0	0	0	0	43	0	0	0	0	0	0	0	0	0	0	0	0	0	0	0	0	0	0	0	0	0	0	0	0	0	0	0	0	0	0	0	0	0	0	0	0	0	0	0	0	0	0	0	0	0	0	0	0	0	0	0	0	0	0	0	0	0	0	0	0	0	0	0	0	0	0	0	0	0	0	0	0	0	0	0	0	0	0	0	0	0	0	0	0	0	0	0	0	0	0	0	0	0	0	0	0	0	0	0	0	0	0	0	0	0	0	0	0	0	0	0
D_0__Eukaryota ::: D_0__Eukaryota;D_1__Opisthokonta ::: D_0__Eukaryota;D_1__Opisthokonta;D_2__Holozoa ::: D_0__Eukaryota;D_1__Opisthokonta;D_2__Holozoa;D_3__Metazoa (Animalia) ::: D_0__Eukaryota;D_1__Opisthokonta;D_2__Holozoa;D_3__Metazoa (Animalia);D_8__Ellipura ::: D_0__Eukaryota;D_1__Opisthokonta;D_2__Holozoa;D_3__Metazoa (Animalia);D_8__Ellipura;D_9__Collembola	0	0	0	0	0	0	0	0	0	0	0	0	0	0	0	0	0	0	0	0	0	0	0	0	0	0	0	0	0	0	0	0	0	0	0	0	0	0	0	0	0	0	0	0	0	0	0	103	0	0	0	0	0	0	0	0	0	0	0	0	0	0	0	0	0	0	0	0	0	0	0	0	0	0	0	0	0	0	0	0	0	0	0	0	0	0	0	0	0	0	0	0	0	0	0	0	0	0	0	0	0	0	0	0	0	0	0	0	0	0	0	0	0	0	0	0	0	0	0	0	0	0	0	0	0	0	0	0	0	0	0	0	0	0	0	0	0	0	0	0	0	0	0	0	0	0	0	0	0	0	0	0	0	0	0	0	0	0	0
D_0__Eukaryota ::: D_0__Eukaryota;D_1__Opisthokonta ::: D_0__Eukaryota;D_1__Opisthokonta;D_2__Holozoa ::: D_0__Eukaryota;D_1__Opisthokonta;D_2__Holozoa;D_3__Metazoa (Animalia) ::: D_0__Eukaryota;D_1__Opisthokonta;D_2__Holozoa;D_3__Metazoa (Animalia);D_9__Copepoda ::: D_0__Eukaryota;D_1__Opisthokonta;D_2__Holozoa;D_3__Metazoa (Animalia);D_9__Copepoda;D_10__Calanoida	0	0	0	0	0	0	0	0	0	0	0	0	0	0	0	0	0	0	0	0	0	0	0	0	0	0	0	0	0	0	0	0	0	0	0	0	0	0	0	0	0	0	0	0	0	0	0	0	0	0	0	0	0	0	0	0	0	0	0	0	0	0	0	0	0	0	0	0	0	0	0	0	0	0	0	0	0	0	0	0	0	0	0	0	0	0	0	0	0	0	0	0	0	0	0	0	0	0	3	0	0	0	0	0	0	0	0	0	0	0	0	0	0	0	0	0	0	0	0	0	0	0	0	0	0	0	0	0	0	0	0	0	0	0	0	0	0	0	0	0	0	0	0	0	0	0	0	0	0	0	0	0	0	0	0	0	0	0	0
D_0__Eukaryota ::: D_0__Eukaryota;D_1__Opisthokonta ::: D_0__Eukaryota;D_1__Opisthokonta;D_2__Holozoa ::: D_0__Eukaryota;D_1__Opisthokonta;D_2__Holozoa;D_3__Metazoa (Animalia) ::: D_0__Eukaryota;D_1__Opisthokonta;D_2__Holozoa;D_3__Metazoa (Animalia);D_9__Copepoda ::: D_0__Eukaryota;D_1__Opisthokonta;D_2__Holozoa;D_3__Metazoa (Animalia);D_9__Copepoda;D_10__Calanoida ::: D_0__Eukaryota;D_1__Opisthokonta;D_2__Holozoa;D_3__Metazoa (Animalia);D_9__Copepoda;D_10__Calanoida;Ambiguous_taxa	0	0	0	0	0	0	0	0	0	0	0	0	0	0	0	0	0	0	0	0	0	0	0	0	0	0	0	0	0	0	0	0	0	0	0	0	0	0	0	0	0	0	0	0	0	0	0	0	0	0	0	0	0	0	0	0	0	0	0	0	0	0	0	0	0	0	0	0	0	0	0	0	0	0	0	0	0	0	0	0	0	148	0	0	0	0	0	0	0	0	0	0	0	0	0	0	0	0	0	0	0	0	0	0	0	0	0	0	0	0	0	0	0	0	0	0	0	0	0	0	0	0	0	0	0	0	0	0	0	0	0	0	0	0	0	0	0	0	0	0	0	0	0	0	0	3	0	0	0	0	0	0	0	0	0	0	0	0	0
D_0__Eukaryota ::: D_0__Eukaryota;D_1__Opisthokonta ::: D_0__Eukaryota;D_1__Opisthokonta;D_2__Nucletmycea ::: D_0__Eukaryota;D_1__Opisthokonta;D_2__Nucletmycea;D_3__Fungi ::: D_0__Eukaryota;D_1__Opisthokonta;D_2__Nucletmycea;D_3__Fungi;D_9__Torulaceae ::: D_0__Eukaryota;D_1__Opisthokonta;D_2__Nucletmycea;D_3__Fungi;D_9__Torulaceae;Ambiguous_taxa	0	0	0	0	0	0	0	0	0	0	0	0	0	0	0	0	0	0	0	0	0	0	0	0	0	0	0	0	0	0	0	0	0	0	0	0	0	0	0	0	0	0	0	0	0	0	0	0	0	0	0	0	0	0	0	0	0	0	0	0	0	0	0	0	0	0	0	0	0	0	0	0	0	0	0	0	0	0	0	0	0	0	0	0	0	0	0	0	0	0	0	0	0	0	0	0	0	0	0	0	0	0	0	0	0	0	0	0	0	0	0	0	0	0	0	0	0	0	0	0	0	25	0	0	0	0	0	0	0	0	0	0	0	0	0	0	0	0	0	0	0	0	0	0	0	0	0	0	0	0	0	0	0	0	0	0	0	0	0
D_0__Eukaryota ::: D_0__Eukaryota;D_1__SAR ::: D_0__Eukaryota;D_1__SAR;D_2__Alveolata ::: D_0__Eukaryota;D_1__SAR;D_2__Alveolata;D_3__Dinoflagellata ::: D_0__Eukaryota;D_1__SAR;D_2__Alveolata;D_3__Dinoflagellata;D_4__Noctilucales ::: D_0__Eukaryota;D_1__SAR;D_2__Alveolata;D_3__Dinoflagellata;D_4__Noctilucales;D_5__uncultured eukaryote	0	0	0	0	0	0	0	0	0	0	0	0	0	0	0	0	0	0	0	0	0	0	0	0	0	0	0	0	0	0	0	0	0	0	0	0	0	0	0	0	0	0	0	0	0	0	0	0	0	0	0	0	0	0	0	0	0	0	0	0	0	13	0	0	0	0	0	0	0	0	0	0	0	0	0	0	0	0	0	0	0	0	0	0	0	0	0	0	0	0	0	0	0	0	0	0	0	0	0	0	0	0	0	0	0	0	0	0	0	0	0	0	0	0	0	0	0	0	0	0	0	0	0	0	0	0	0	0	0	0	0	0	0	0	0	0	0	0	0	0	0	0	0	0	0	0	0	0	0	0	0	0	0	0	0	0	0	0	0
D_0__Eukaryota ::: D_0__Eukaryota;D_1__SAR ::: D_0__Eukaryota;D_1__SAR;D_2__Alveolata ::: D_0__Eukaryota;D_1__SAR;D_2__Alveolata;D_3__Protalveolata ::: D_0__Eukaryota;D_1__SAR;D_2__Alveolata;D_3__Protalveolata;D_4__Syndiniales ::: D_0__Eukaryota;D_1__SAR;D_2__Alveolata;D_3__Protalveolata;D_4__Syndiniales;D_5__Syndiniales Group II ::: D_0__Eukaryota;D_1__SAR;D_2__Alveolata;D_3__Protalveolata;D_4__Syndiniales;D_5__Syndiniales Group II;D_6__uncultured eukaryote	0	0	0	0	0	0	0	0	0	0	0	0	0	0	0	0	0	0	0	0	0	0	0	0	0	0	0	0	0	0	0	0	0	0	0	0	0	17	0	0	0	0	0	0	0	0	0	0	0	0	0	0	0	0	0	0	0	0	0	0	0	0	0	0	0	0	0	0	0	0	0	0	0	0	0	0	0	0	0	0	0	0	0	0	0	0	0	0	0	0	0	0	0	0	0	0	0	0	0	0	0	0	0	0	0	0	0	0	0	0	0	0	0	0	0	0	0	0	0	0	0	0	0	0	0	0	0	0	0	0	0	0	0	0	0	0	0	0	0	0	0	0	0	0	0	0	0	0	0	0	0	0	0	0	0	0	0	0	0
D_0__Eukaryota ::: D_0__Eukaryota;D_1__SAR ::: D_0__Eukaryota;D_1__SAR;D_2__Stramenopiles	0	0	0	0	0	0	0	0	0	0	0	0	0	0	0	0	0	0	0	0	0	0	0	0	0	0	0	0	0	0	0	0	0	0	0	0	0	0	0	0	0	0	0	0	0	0	0	0	0	0	0	0	0	0	0	0	0	0	0	0	0	0	0	0	19	0	0	0	0	0	0	0	0	0	0	0	0	0	0	0	0	0	0	0	0	0	0	0	0	0	0	0	0	0	0	0	0	0	0	0	0	0	0	0	0	0	0	0	0	0	0	0	0	0	0	0	0	0	0	0	0	0	0	0	0	0	0	0	0	0	0	0	0	0	0	0	0	0	0	0	0	0	0	0	0	0	0	0	0	0	0	0	0	0	0	0	0	0	0
D_0__Eukaryota ::: D_0__Eukaryota;D_1__SAR ::: D_0__Eukaryota;D_1__SAR;D_2__Stramenopiles ::: D_0__Eukaryota;D_1__SAR;D_2__Stramenopiles;D_3__Ochrophyta ::: D_0__Eukaryota;D_1__SAR;D_2__Stramenopiles;D_3__Ochrophyta;D_4__Chrysophyceae ::: D_0__Eukaryota;D_1__SAR;D_2__Stramenopiles;D_3__Ochrophyta;D_4__Chrysophyceae;D_5__uncultured ::: D_0__Eukaryota;D_1__SAR;D_2__Stramenopiles;D_3__Ochrophyta;D_4__Chrysophyceae;D_5__uncultured;Ambiguous_taxa	0	0	0	0	0	0	0	0	0	0	0	0	0	0	0	0	0	0	0	0	0	0	0	0	0	0	0	0	0	0	0	0	0	0	0	0	0	0	0	0	0	0	0	0	0	0	0	0	0	0	0	0	0	0	0	0	0	0	0	0	0	0	0	0	0	0	0	0	0	0	0	0	0	0	0	0	0	0	0	0	0	0	0	0	0	0	0	0	0	0	0	0	0	0	0	0	0	0	13	0	0	0	0	0	0	0	0	0	0	0	0	0	0	0	0	0	0	0	0	0	4	0	0	0	0	0	0	0	0	0	0	0	0	0	0	0	0	0	0	0	0	0	0	0	0	0	0	0	0	0	0	0	0	0	0	0	0	0	0
D_0__Eukaryota ::: D_0__Eukaryota;D_1__SAR ::: D_0__Eukaryota;D_1__SAR;D_2__Stramenopiles ::: D_0__Eukaryota;D_1__SAR;D_2__Stramenopiles;D_3__Ochrophyta ::: D_0__Eukaryota;D_1__SAR;D_2__Stramenopiles;D_3__Ochrophyta;D_4__Chrysophyceae ::: D_0__Eukaryota;D_1__SAR;D_2__Stramenopiles;D_3__Ochrophyta;D_4__Chrysophyceae;D_5__uncultured ::: D_0__Eukaryota;D_1__SAR;D_2__Stramenopiles;D_3__Ochrophyta;D_4__Chrysophyceae;D_5__uncultured;D_6__metagenome	0	0	0	0	0	0	0	0	0	0	0	0	0	0	0	0	0	0	0	0	0	0	0	0	0	0	0	0	0	0	0	0	0	0	0	0	0	0	0	0	0	0	0	0	0	0	0	0	0	0	0	0	0	0	0	0	0	0	3	0	0	0	0	0	0	0	0	0	0	0	0	0	0	0	0	0	0	0	0	0	0	0	0	0	0	0	0	0	0	0	0	0	0	0	0	0	0	0	0	0	0	0	0	0	0	0	0	0	0	0	0	0	0	0	0	0	0	0	0	0	0	0	0	0	0	0	0	0	0	0	0	0	0	0	0	0	0	0	0	0	0	0	0	0	0	0	0	0	0	0	0	0	0	0	0	0	0	0	0
D_0__Eukaryota ::: D_0__Eukaryota;D_1__SAR ::: D_0__Eukaryota;D_1__SAR;D_2__Stramenopiles ::: D_0__Eukaryota;D_1__SAR;D_2__Stramenopiles;D_3__Ochrophyta ::: D_0__Eukaryota;D_1__SAR;D_2__Stramenopiles;D_3__Ochrophyta;D_6__Fragilariales ::: D_0__Eukaryota;D_1__SAR;D_2__Stramenopiles;D_3__Ochrophyta;D_6__Fragilariales;D_7__Thalassionema	0	0	0	0	0	0	0	0	0	0	0	0	13	0	0	0	0	0	0	0	0	0	0	0	0	0	0	0	0	0	0	0	0	0	0	0	0	0	0	0	0	0	0	0	0	0	0	0	0	0	0	0	0	0	0	0	0	0	0	0	0	0	0	0	0	0	0	0	0	0	0	0	0	0	0	0	0	0	0	0	0	0	0	0	0	0	0	0	0	0	0	0	0	0	0	0	0	0	0	0	0	0	0	0	0	0	0	0	0	0	0	0	0	0	0	0	0	0	0	0	0	0	0	0	0	0	0	0	0	0	0	0	0	0	0	0	0	0	0	0	0	0	0	0	0	0	0	0	0	0	0	0	0	0	0	0	0	0	0
Unassigned	0	0	255	6	23	0	0	0	0	119	0	0	0	0	0	0	4	0	12	27	0	32	17	8	180	18	9	0	4	0	0	31	0	39	0	10	16	28	108	0	37	0	0	0	31	68	0	69	0	271	0	48	0	5	0	7	0	0	6	0	0	6	0	0	0	55	0	0	0	78	11	0	0	210	0	9	0	0	0	0	39	37	28	0	14	6	593	28	261	0	19	0	46	14	0	12	5	12	0	36	9	13	0	127	0	31	37	61	0	0	0	11	11	10	0	0	0	88	0	0	18	290	0	20	0	25	0	0	0	32	0	0	0	0	3	72	13	0	0	0	16	0	20	9	0	0	0	0	0	0	0	0	0	0	0	25	0	0	18
